sim.vcd
$date
	Sat Apr  9 19:57:48 2022
$end
$version
	Icarus Verilog
$end
$timescale
	10ps
$end
$scope module riscv_tb $end
$var reg 1 ! clk $end
$var reg 1 " rstn $end
$var integer 32 # i [31:0] $end
$scope module my_cpu $end
$var wire 32 $ NEXT_PC [31:0] $end
$var wire 32 % alu_in1 [31:0] $end
$var wire 1 ! clk $end
$var wire 32 & instruction [31:0] $end
$var wire 1 " rstn $end
$var wire 32 ' write_data [31:0] $end
$var wire 1 ( taken $end
$var wire 32 ) rs2_out [31:0] $end
$var wire 5 * rs2 [4:0] $end
$var wire 32 + rs1_out [31:0] $end
$var wire 5 , rs1 [4:0] $end
$var wire 1 - reg_write $end
$var wire 32 . read_data [31:0] $end
$var wire 5 / rd [4:0] $end
$var wire 7 0 opcode [6:0] $end
$var wire 1 1 mem_write $end
$var wire 1 2 mem_to_reg $end
$var wire 1 3 mem_read $end
$var wire 2 4 jump [1:0] $end
$var wire 32 5 immediate [31:0] $end
$var wire 7 6 funct7 [6:0] $end
$var wire 3 7 funct3 [2:0] $end
$var wire 1 8 branch $end
$var wire 1 9 alu_src $end
$var wire 32 : alu_out [31:0] $end
$var wire 2 ; alu_op [1:0] $end
$var wire 32 < alu_in2 [31:0] $end
$var wire 4 = alu_func [3:0] $end
$var wire 1 > alu_check $end
$var wire 32 ? PC_target_ind [31:0] $end
$var wire 32 @ PC_target [31:0] $end
$var wire 32 A PC_PLUS_4 [31:0] $end
$var reg 32 B PC [31:0] $end
$var reg 32 C tmp_PC [31:0] $end
$scope module imm_generator $end
$var wire 32 D instruction [31:0] $end
$var wire 7 E opcode [6:0] $end
$var reg 32 F sextimm [31:0] $end
$upscope $end
$scope module m_ALU $end
$var wire 32 G in_a [31:0] $end
$var wire 32 H in_b [31:0] $end
$var wire 4 I alu_func [3:0] $end
$var reg 1 > check $end
$var reg 32 J result [31:0] $end
$upscope $end
$scope module m_ALU_control $end
$var wire 3 K funct3 [2:0] $end
$var wire 7 L funct7 [6:0] $end
$var wire 4 M funct [3:0] $end
$var wire 2 N alu_op [1:0] $end
$var reg 4 O alu_func [3:0] $end
$upscope $end
$scope module m_branch_control $end
$var wire 1 > check $end
$var wire 1 8 branch $end
$var reg 1 ( taken $end
$upscope $end
$scope module m_control $end
$var wire 7 P opcode [6:0] $end
$var wire 1 - reg_write $end
$var wire 1 1 mem_write $end
$var wire 1 2 mem_to_reg $end
$var wire 1 3 mem_read $end
$var wire 2 Q jump [1:0] $end
$var wire 1 8 branch $end
$var wire 1 9 alu_src $end
$var wire 2 R alu_op [1:0] $end
$var reg 10 S controls [9:0] $end
$upscope $end
$scope module m_data_memory $end
$var wire 32 T address [31:0] $end
$var wire 1 ! clk $end
$var wire 2 U maskmode [1:0] $end
$var wire 1 3 mem_read $end
$var wire 1 1 mem_write $end
$var wire 1 V sext $end
$var wire 32 W write_data [31:0] $end
$var wire 8 X address_internal [7:0] $end
$var reg 32 Y read_data [31:0] $end
$upscope $end
$scope module m_next_pc_adder $end
$var wire 32 Z in_a [31:0] $end
$var wire 32 [ in_b [31:0] $end
$var reg 32 \ result [31:0] $end
$upscope $end
$scope module m_register_file $end
$var wire 1 ! clk $end
$var wire 5 ] rd [4:0] $end
$var wire 1 - reg_write $end
$var wire 5 ^ rs1 [4:0] $end
$var wire 32 _ rs1_out [31:0] $end
$var wire 5 ` rs2 [4:0] $end
$var wire 32 a rs2_out [31:0] $end
$var wire 32 b write_data [31:0] $end
$upscope $end
$scope module mux_WriteBack $end
$var wire 32 c in1 [31:0] $end
$var wire 32 d in2 [31:0] $end
$var wire 32 e in3 [31:0] $end
$var wire 32 f in4 [31:0] $end
$var wire 2 g select [1:0] $end
$var reg 32 h out [31:0] $end
$upscope $end
$upscope $end
$upscope $end
$enddefinitions $end
#0
$dumpvars
b0 h
bx g
bx f
bx e
b0 d
bx c
b0 b
bx a
bx `
bx _
bx ^
bx ]
bx \
b100 [
bx Z
b0 Y
bx X
bx W
xV
bx U
bx T
bx S
bx R
bx Q
bx P
bx O
bx N
bx M
bx L
bx K
bx J
bx I
bx H
bx G
bx F
bx E
bx D
bx C
bx B
bx A
bx @
bx ?
x>
bx =
bx <
bx ;
bx :
x9
x8
bx 7
bx 6
bx 5
bx 4
x3
x2
x1
bx 0
bx /
b0 .
x-
bx ,
bx +
bx *
bx )
x(
b0 '
bx &
bx %
bx $
b1000000 #
0"
0!
$end
#2000
b11100000 '
b11100000 b
b11100000 h
b0 4
b0 Q
08
03
b0 g
02
b11 ;
b11 N
b11 R
01
19
1-
0(
b111000 X
b11011 S
b0 U
0V
b0 =
b0 I
b0 O
1>
b11100000 :
b11100000 J
b11100000 T
b11100000 c
b11111111111111111111111111100000 @
b11111111111111111111111111100000 <
b11111111111111111111111111100000 H
b10011 0
b10011 P
b1111111 6
b1111111 L
b1000 M
b0 7
b0 K
b11100000 ?
b100000000 %
b100000000 G
b100000000 +
b100000000 _
b10 ,
b10 ^
b0 )
b0 W
b0 a
b0 *
b0 `
b10 /
b10 ]
b11111111111111111111111111100000 5
b11111111111111111111111111100000 F
b10011 E
b11111110000000010000000100010011 &
b11111110000000010000000100010011 D
b100 A
b100 \
b100 e
b100 f
b100 $
b100 C
b0 B
b0 Z
1!
#4000
b110000 X
b11000000 '
b11000000 b
b11000000 h
b11000000 :
b11000000 J
b11000000 T
b11000000 c
b11000000 ?
b11100000 %
b11100000 G
b11100000 +
b11100000 _
0!
#6000
b111111 X
b11111100 '
b11111100 b
b11111100 h
b0 ;
b0 N
b0 R
11
0-
1>
b11111100 :
b11111100 J
b11111100 T
b11111100 c
b110 S
b10 U
b0 =
b0 I
b0 O
b11100 <
b11100 H
b100011 0
b100011 P
b0 6
b0 L
b10 M
b10 7
b10 K
b1000 *
b1000 `
b11100 /
b11100 ]
b11111100 ?
b11100 5
b11100 F
b100011 E
b100000010010111000100011 &
b100000010010111000100011 D
b100000 @
b1000 A
b1000 \
b1000 e
b1000 f
b1000 $
b1000 C
b100 B
b100 Z
1!
1"
#8000
0!
#10000
b111110 X
b11111000 '
b11111000 b
b11111000 h
b11111000 :
b11111000 J
b11111000 T
b11111000 c
b11000 <
b11000 H
b11011000 )
b11011000 W
b11011000 a
b1 *
b1 `
b11000 /
b11000 ]
b11111000 ?
b11000 5
b11000 F
b100010010110000100011 &
b100010010110000100011 D
b100000 @
b1100 A
b1100 \
b1100 e
b1100 f
b1100 $
b1100 C
b1000 B
b1000 Z
1!
#12000
0!
#14000
b111100 X
b11110000 '
b11110000 b
b11110000 h
b11 ;
b11 N
b11 R
01
1-
b11110000 :
b11110000 J
b11110000 T
b11110000 c
b11011 S
b0 U
b10000 <
b10000 H
b10011 0
b10011 P
b0 M
b0 7
b0 K
b0 )
b0 W
b0 a
b10000 *
b10000 `
b1000 /
b1000 ]
b11110000 ?
b10000 5
b10000 F
b10011 E
b1000000010000010000010011 &
b1000000010000010000010011 D
b11100 @
b10000 A
b10000 \
b10000 e
b10000 f
b10000 $
b10000 C
b1100 B
b1100 Z
1!
#16000
0!
#18000
b0 ;
b0 N
b0 R
11
0-
1>
b111011 X
b11101100 '
b11101100 b
b11101100 h
b110 S
b10 U
b0 =
b0 I
b0 O
b11101100 :
b11101100 J
b11101100 T
b11101100 c
b11111111111111111111111111111100 <
b11111111111111111111111111111100 H
b100011 0
b100011 P
b1111111 6
b1111111 L
b1010 M
b10 7
b10 K
b11110000 %
b11110000 G
b11110000 +
b11110000 _
b1000 ,
b1000 ^
b10 )
b10 W
b10 a
b1010 *
b1010 `
b11100 /
b11100 ]
b11101100 ?
b11111111111111111111111111111100 5
b11111111111111111111111111111100 F
b100011 E
b11111110101001000010111000100011 &
b11111110101001000010111000100011 D
b1100 @
b10100 A
b10100 \
b10100 e
b10100 f
b10100 $
b10100 C
b10000 B
b10000 Z
1!
#20000
0!
#22000
b111100 X
b11110000 '
b11110000 b
b11110000 h
b11 ;
b11 N
b11 R
01
1-
b11110000 :
b11110000 J
b11110000 T
b11110000 c
b11011 S
b0 U
b0 <
b0 H
b10011 0
b10011 P
b0 6
b0 L
b0 M
b0 7
b0 K
b0 )
b0 W
b0 a
b0 *
b0 `
b1010 /
b1010 ]
b11110000 ?
b0 5
b0 F
b10011 E
b1000000010100010011 &
b1000000010100010011 D
b10100 @
b11000 A
b11000 \
b11000 e
b11000 f
b11000 $
b11000 C
b10100 B
b10100 Z
1!
#24000
0!
#26000
b111011 X
b11101100 '
b11101100 b
b11101100 h
b11101100 :
b11101100 J
b11101100 T
b11101100 c
b1000 M
b11111111111111111111111111111100 <
b11111111111111111111111111111100 H
b1111111 6
b1111111 L
b1010 ,
b1010 ^
b11100 *
b11100 `
b11101100 ?
b11111111111111111111111111111100 5
b11111111111111111111111111111100 F
b11111111110001010000010100010011 &
b11111111110001010000010100010011 D
b10100 @
b11100 A
b11100 \
b11100 e
b11100 f
b11100 $
b11100 C
b11000 B
b11000 Z
1!
#28000
b111010 X
b11101000 '
b11101000 b
b11101000 h
b11101000 :
b11101000 J
b11101000 T
b11101000 c
b11101000 ?
b11101100 %
b11101100 G
b11101100 +
b11101100 _
0!
#30000
b10 .
b10 Y
b10 d
b111011 X
b10 '
b10 b
b10 h
13
b1 g
12
b0 ;
b0 N
b0 R
1>
b11101100 :
b11101100 J
b11101100 T
b11101100 c
b1100011 S
b10 U
b0 =
b0 I
b0 O
b0 <
b0 H
b11 0
b11 P
b0 6
b0 L
b10 M
b10 7
b10 K
b0 *
b0 `
b11101100 ?
b0 5
b0 F
b11 E
b1010010010100000011 &
b1010010010100000011 D
b11100 @
b100000 A
b100000 \
b100000 e
b100000 f
b100000 $
b100000 C
b11100 B
b11100 Z
1!
#32000
b0 '
b0 b
b0 h
b0 .
b0 Y
b0 d
b0 X
b10 :
b10 J
b10 T
b10 c
b10 ?
b10 %
b10 G
b10 +
b10 _
0!
#34000
03
b0 g
02
b11 ;
b11 N
b11 R
b11011 S
b0 U
b0 :
b0 J
b0 T
b0 c
b10011 0
b10011 P
b0 M
b0 7
b0 K
b0 ?
b0 %
b0 G
b0 +
b0 _
b0 ,
b0 ^
b1011 /
b1011 ]
b10011 E
b10110010011 &
b10110010011 D
b100000 @
b100100 A
b100100 \
b100100 e
b100100 f
b100100 $
b100100 C
b100000 B
b100000 Z
1!
#36000
0!
#38000
0>
0(
b1111 =
b1111 I
b1111 O
18
b1 ;
b1 N
b1 R
09
0-
b0 X
b0 '
b0 b
b0 h
b10001000 S
b0 :
b0 J
b0 T
b0 c
b0 <
b0 H
b1100011 0
b1100011 P
b10 %
b10 G
b10 +
b10 _
b1010 ,
b1010 ^
b1011 *
b1011 `
b1100 /
b1100 ]
b1110 ?
b1100 5
b1100 F
b1100011 E
b101101010000011001100011 &
b101101010000011001100011 D
b110000 @
b101000 A
b101000 \
b101000 e
b101000 f
b101000 $
b101000 C
b100100 B
b100100 Z
1!
#40000
0!
#42000
1>
b0 =
b0 I
b0 O
08
b11 ;
b11 N
b11 R
19
1-
b11011 S
b10011 0
b10011 P
b0 %
b0 G
b0 +
b0 _
b0 ,
b0 ^
b0 *
b0 `
b1010 /
b1010 ]
b0 ?
b0 5
b0 F
b10011 E
b10100010011 &
b10100010011 D
b101000 @
b101100 A
b101100 \
b101100 e
b101100 f
b101100 $
b101100 C
b101000 B
b101000 Z
1!
#44000
0!
#46000
b10 g
b111100 X
b110000 '
b110000 b
b110000 h
b10 4
b10 Q
b0 ;
b0 N
b0 R
09
b11110000 :
b11110000 J
b11110000 T
b11110000 c
b1000000001 S
b11110000 <
b11110000 H
b1101111 0
b1101111 P
b11110000 )
b11110000 W
b11110000 a
b1000 *
b1000 `
b0 /
b0 ]
b1000 ?
b1000 5
b1000 F
b1101111 E
b100000000000000001101111 &
b100000000000000001101111 D
b110100 @
b110000 A
b110000 \
b110000 e
b110000 f
b110100 $
b110100 C
b101100 B
b101100 Z
1!
#48000
b1000 ?
b0 %
b0 G
b0 +
b0 _
0!
#50000
b0 g
b0 X
b0 4
b0 Q
b11 ;
b11 N
b11 R
19
b0 :
b0 J
b0 T
b0 c
b11011 S
b0 <
b0 H
b10011 0
b10011 P
b0 )
b0 W
b0 a
b0 *
b0 `
b0 ?
b0 5
b0 F
b10011 E
b111000 $
b111000 C
b0 '
b0 b
b0 h
b10011 &
b10011 D
b110100 @
b111000 A
b111000 \
b111000 e
b111000 f
b110100 B
b110100 Z
1!
#52000
0!
#54000
0>
0(
b1111 =
b1111 I
b1111 O
b0 X
b0 '
b0 b
b0 h
18
b1 ;
b1 N
b1 R
09
0-
b0 :
b0 J
b0 T
b0 c
b10001000 S
b0 <
b0 H
b1100011 0
b1100011 P
b1010 ,
b1010 ^
b10000 /
b10000 ]
b10000 ?
b10000 5
b10000 F
b1100011 E
b1010000100001100011 &
b1010000100001100011 D
b1001000 @
b111100 A
b111100 \
b111100 e
b111100 f
b111100 $
b111100 C
b111000 B
b111000 Z
1!
#56000
0!
#58000
1>
b0 =
b0 I
b0 O
08
b11 ;
b11 N
b11 R
19
1-
b11011 S
b10011 0
b10011 P
b0 ,
b0 ^
b1010 /
b1010 ]
b0 ?
b0 5
b0 F
b10011 E
b10100010011 &
b10100010011 D
b111100 @
b1000000 A
b1000000 \
b1000000 e
b1000000 f
b1000000 $
b1000000 C
b111100 B
b111100 Z
1!
#60000
0!
#62000
b10 g
b111100 X
b1000100 '
b1000100 b
b1000100 h
b10 4
b10 Q
b0 ;
b0 N
b0 R
09
b11110000 :
b11110000 J
b11110000 T
b11110000 c
b1000000001 S
b11110000 <
b11110000 H
b1101111 0
b1101111 P
b100 6
b100 L
b11110000 )
b11110000 W
b11110000 a
b1000 *
b1000 `
b0 /
b0 ]
b10001000 ?
b10001000 5
b10001000 F
b1101111 E
b1000100000000000000001101111 &
b1000100000000000000001101111 D
b11001000 @
b1000100 A
b1000100 \
b1000100 e
b1000100 f
b11001000 $
b11001000 C
b1000000 B
b1000000 Z
1!
#64000
b10001000 ?
b0 %
b0 G
b0 +
b0 _
0!
#66000
b1000000 X
b100000000 :
b100000000 J
b100000000 T
b100000000 c
b0 g
b0 4
b0 Q
b11 ;
b11 N
b11 R
19
b11011 S
b10000 <
b10000 H
b10011 0
b10011 P
b0 6
b0 L
b11110000 %
b11110000 G
b11110000 +
b11110000 _
b1000 ,
b1000 ^
b0 )
b0 W
b0 a
b10000 *
b10000 `
b10 /
b10 ]
b100000000 ?
b10000 5
b10000 F
b10011 E
b11001100 $
b11001100 C
b100000000 '
b100000000 b
b100000000 h
b1000001000000000100010011 &
b1000001000000000100010011 D
b11011000 @
b11001100 A
b11001100 \
b11001100 e
b11001100 f
b11001000 B
b11001000 Z
1!
#68000
0!
#70000
b11011000 .
b11011000 Y
b11011000 d
13
b1 g
12
b0 ;
b0 N
b0 R
1>
b111110 X
b11011000 '
b11011000 b
b11011000 h
b1100011 S
b10 U
b0 =
b0 I
b0 O
b11111000 :
b11111000 J
b11111000 T
b11111000 c
b11111111111111111111111111111000 <
b11111111111111111111111111111000 H
b11 0
b11 P
b1111111 6
b1111111 L
b1010 M
b10 7
b10 K
b100000000 %
b100000000 G
b100000000 +
b100000000 _
b10 ,
b10 ^
b11000 *
b11000 `
b1 /
b1 ]
b11111000 ?
b11111111111111111111111111111000 5
b11111111111111111111111111111000 F
b11 E
b11111111100000010010000010000011 &
b11111111100000010010000010000011 D
b11000100 @
b11010000 A
b11010000 \
b11010000 e
b11010000 f
b11010000 $
b11010000 C
b11001100 B
b11001100 Z
1!
#72000
0!
#74000
b0 '
b0 b
b0 h
b0 .
b0 Y
b0 d
b111111 X
b11111100 :
b11111100 J
b11111100 T
b11111100 c
b11111111111111111111111111111100 <
b11111111111111111111111111111100 H
b11100 *
b11100 `
b1000 /
b1000 ]
b11111100 ?
b11111111111111111111111111111100 5
b11111111111111111111111111111100 F
b11111111110000010010010000000011 &
b11111111110000010010010000000011 D
b11001100 @
b11010100 A
b11010100 \
b11010100 e
b11010100 f
b11010100 $
b11010100 C
b11010000 B
b11010000 Z
1!
#76000
0!
#78000
b11011000 '
b11011000 b
b11011000 h
b1 4
b1 Q
03
b0 g
02
09
b110110 X
b100000001 S
b0 U
b11011000 :
b11011000 J
b11011000 T
b11011000 c
b0 <
b0 H
b1100111 0
b1100111 P
b0 6
b0 L
b0 M
b0 7
b0 K
b11011000 %
b11011000 G
b11011000 +
b11011000 _
b1 ,
b1 ^
b0 *
b0 `
b0 /
b0 ]
b11011000 ?
b0 5
b0 F
b1100111 E
b1000000001100111 &
b1000000001100111 D
b11010100 @
b11011000 A
b11011000 \
b11011000 e
b11011000 f
b11011000 $
b11011000 C
b11010100 B
b11010100 Z
1!
#80000
b0 )
b0 W
b0 a
0!
#82000
b1111011 <
b1111011 H
b0 4
b0 Q
b11 ;
b11 N
b11 R
19
b11110 X
b1111011 '
b1111011 b
b1111011 h
b11011 S
b1111011 :
b1111011 J
b1111011 T
b1111011 c
b10011 0
b10011 P
b11 6
b11 L
b0 %
b0 G
b0 +
b0 _
b110 ,
b110 ^
b11011 *
b11011 `
b110 /
b110 ]
b1111011 ?
b1111011 5
b1111011 F
b10011 E
b111101100110000001100010011 &
b111101100110000001100010011 D
b101010011 @
b11011100 A
b11011100 \
b11011100 e
b11011100 f
b11011100 $
b11011100 C
b11011000 B
b11011000 Z
1!
#84000
b111101 X
b11110110 '
b11110110 b
b11110110 h
b11110110 :
b11110110 J
b11110110 T
b11110110 c
b11110110 ?
b1111011 %
b1111011 G
b1111011 +
b1111011 _
0!
#86000
0>
b1111 =
b1111 I
b1111 O
b0 ;
b0 N
b0 R
09
0-
b0 X
b0 '
b0 b
b0 h
b0 S
bx U
xV
b0 :
b0 J
b0 T
b0 c
bx <
bx H
bx 0
bx P
bx 6
bx L
bx M
bx 7
bx K
bx %
bx G
bx +
bx _
bx ,
bx ^
bx )
bx W
bx a
bx *
bx `
bx /
bx ]
bx ?
b0 5
b0 F
bx E
bx &
bx D
b11011100 @
b11100000 A
b11100000 \
b11100000 e
b11100000 f
b11100000 $
b11100000 C
b11011100 B
b11011100 Z
1!
#88000
0!
#90000
b11100000 @
b11100100 A
b11100100 \
b11100100 e
b11100100 f
b11100100 $
b11100100 C
b11100000 B
b11100000 Z
1!
#92000
0!
#94000
b11100100 @
b11101000 A
b11101000 \
b11101000 e
b11101000 f
b11101000 $
b11101000 C
b11100100 B
b11100100 Z
1!
#96000
0!
#98000
b11101000 @
b11101100 A
b11101100 \
b11101100 e
b11101100 f
b11101100 $
b11101100 C
b11101000 B
b11101000 Z
1!
#100000
0!
#102000
b11101100 @
b11110000 A
b11110000 \
b11110000 e
b11110000 f
b11110000 $
b11110000 C
b11101100 B
b11101100 Z
1!
#104000
0!
#106000
b11110000 @
b11110100 A
b11110100 \
b11110100 e
b11110100 f
b11110100 $
b11110100 C
b11110000 B
b11110000 Z
1!
#108000
0!
#110000
b11110100 @
b11111000 A
b11111000 \
b11111000 e
b11111000 f
b11111000 $
b11111000 C
b11110100 B
b11110100 Z
1!
#112000
0!
#114000
b11111000 @
b11111100 A
b11111100 \
b11111100 e
b11111100 f
b11111100 $
b11111100 C
b11111000 B
b11111000 Z
1!
#116000
0!
#118000
b11111100 @
b100000000 A
b100000000 \
b100000000 e
b100000000 f
b100000000 $
b100000000 C
b11111100 B
b11111100 Z
1!
#120000
0!
#122000
b111000 X
b11100000 '
b11100000 b
b11100000 h
1>
b11100000 :
b11100000 J
b11100000 T
b11100000 c
b11 ;
b11 N
b11 R
19
1-
b0 =
b0 I
b0 O
b11011 S
b0 U
0V
b11111111111111111111111111100000 <
b11111111111111111111111111100000 H
b10011 0
b10011 P
b1111111 6
b1111111 L
b1000 M
b0 7
b0 K
b11100000 ?
b100000000 %
b100000000 G
b100000000 +
b100000000 _
b10 ,
b10 ^
b0 )
b0 W
b0 a
b0 *
b0 `
b10 /
b10 ]
b11111111111111111111111111100000 5
b11111111111111111111111111100000 F
b10011 E
b11111110000000010000000100010011 &
b11111110000000010000000100010011 D
b11100000 @
b100000100 A
b100000100 \
b100000100 e
b100000100 f
b100000100 $
b100000100 C
b100000000 B
b100000000 Z
1!
#124000
b110000 X
b11000000 '
b11000000 b
b11000000 h
b11000000 :
b11000000 J
b11000000 T
b11000000 c
b11000000 ?
b11100000 %
b11100000 G
b11100000 +
b11100000 _
0!
#126000
b111111 X
b11111100 '
b11111100 b
b11111100 h
b0 ;
b0 N
b0 R
11
0-
1>
b11111100 :
b11111100 J
b11111100 T
b11111100 c
b110 S
b10 U
b0 =
b0 I
b0 O
b11100 <
b11100 H
b100011 0
b100011 P
b0 6
b0 L
b10 M
b10 7
b10 K
b1000 *
b1000 `
b11100 /
b11100 ]
b11111100 ?
b11100 5
b11100 F
b100011 E
b100000010010111000100011 &
b100000010010111000100011 D
b100100000 @
b100001000 A
b100001000 \
b100001000 e
b100001000 f
b100001000 $
b100001000 C
b100000100 B
b100000100 Z
1!
#128000
0!
#130000
b111110 X
b11111000 '
b11111000 b
b11111000 h
b11111000 :
b11111000 J
b11111000 T
b11111000 c
b11000 <
b11000 H
b11011000 )
b11011000 W
b11011000 a
b1 *
b1 `
b11000 /
b11000 ]
b11111000 ?
b11000 5
b11000 F
b100010010110000100011 &
b100010010110000100011 D
b100100000 @
b100001100 A
b100001100 \
b100001100 e
b100001100 f
b100001100 $
b100001100 C
b100001000 B
b100001000 Z
1!
#132000
0!
#134000
b111100 X
b11110000 '
b11110000 b
b11110000 h
b11 ;
b11 N
b11 R
01
1-
b11110000 :
b11110000 J
b11110000 T
b11110000 c
b11011 S
b0 U
b10000 <
b10000 H
b10011 0
b10011 P
b0 M
b0 7
b0 K
b0 )
b0 W
b0 a
b10000 *
b10000 `
b1000 /
b1000 ]
b11110000 ?
b10000 5
b10000 F
b10011 E
b1000000010000010000010011 &
b1000000010000010000010011 D
b100011100 @
b100010000 A
b100010000 \
b100010000 e
b100010000 f
b100010000 $
b100010000 C
b100001100 B
b100001100 Z
1!
#136000
0!
#138000
b0 ;
b0 N
b0 R
11
0-
1>
b111011 X
b11101100 '
b11101100 b
b11101100 h
b110 S
b10 U
b0 =
b0 I
b0 O
b11101100 :
b11101100 J
b11101100 T
b11101100 c
b11111111111111111111111111111100 <
b11111111111111111111111111111100 H
b100011 0
b100011 P
b1111111 6
b1111111 L
b1010 M
b10 7
b10 K
b11110000 %
b11110000 G
b11110000 +
b11110000 _
b1000 ,
b1000 ^
b1010 *
b1010 `
b11100 /
b11100 ]
b11101100 ?
b11111111111111111111111111111100 5
b11111111111111111111111111111100 F
b100011 E
b11111110101001000010111000100011 &
b11111110101001000010111000100011 D
b100001100 @
b100010100 A
b100010100 \
b100010100 e
b100010100 f
b100010100 $
b100010100 C
b100010000 B
b100010000 Z
1!
#140000
0!
#142000
b111100 X
b11110000 '
b11110000 b
b11110000 h
b11 ;
b11 N
b11 R
01
1-
b11110000 :
b11110000 J
b11110000 T
b11110000 c
b11011 S
b0 U
b0 <
b0 H
b10011 0
b10011 P
b0 6
b0 L
b0 M
b0 7
b0 K
b0 *
b0 `
b1010 /
b1010 ]
b11110000 ?
b0 5
b0 F
b10011 E
b1000000010100010011 &
b1000000010100010011 D
b100010100 @
b100011000 A
b100011000 \
b100011000 e
b100011000 f
b100011000 $
b100011000 C
b100010100 B
b100010100 Z
1!
#144000
0!
#146000
b111011 X
b11101100 '
b11101100 b
b11101100 h
b11101100 :
b11101100 J
b11101100 T
b11101100 c
b1000 M
b11111111111111111111111111111100 <
b11111111111111111111111111111100 H
b1111111 6
b1111111 L
b1010 ,
b1010 ^
b11100 *
b11100 `
b11101100 ?
b11111111111111111111111111111100 5
b11111111111111111111111111111100 F
b11111111110001010000010100010011 &
b11111111110001010000010100010011 D
b100010100 @
b100011100 A
b100011100 \
b100011100 e
b100011100 f
b100011100 $
b100011100 C
b100011000 B
b100011000 Z
1!
#148000
b111010 X
b11101000 '
b11101000 b
b11101000 h
b11101000 :
b11101000 J
b11101000 T
b11101000 c
b11101000 ?
b11101100 %
b11101100 G
b11101100 +
b11101100 _
0!
#150000
b111011 X
b0 '
b0 b
b0 h
13
b1 g
12
b0 ;
b0 N
b0 R
1>
b11101100 :
b11101100 J
b11101100 T
b11101100 c
b1100011 S
b10 U
b0 =
b0 I
b0 O
b0 <
b0 H
b11 0
b11 P
b0 6
b0 L
b10 M
b10 7
b10 K
b0 *
b0 `
b11101100 ?
b0 5
b0 F
b11 E
b1010010010100000011 &
b1010010010100000011 D
b100011100 @
b100100000 A
b100100000 \
b100100000 e
b100100000 f
b100100000 $
b100100000 C
b100011100 B
b100011100 Z
1!
#152000
b0 X
b0 :
b0 J
b0 T
b0 c
b0 ?
b0 %
b0 G
b0 +
b0 _
0!
#154000
03
b0 g
02
b11 ;
b11 N
b11 R
b11011 S
b0 U
b10011 0
b10011 P
b0 M
b0 7
b0 K
b0 ,
b0 ^
b1011 /
b1011 ]
b10011 E
b10110010011 &
b10110010011 D
b100100000 @
b100100100 A
b100100100 \
b100100100 e
b100100100 f
b100100100 $
b100100100 C
b100100000 B
b100100000 Z
1!
#156000
0!
#158000
0>
0(
b1111 =
b1111 I
b1111 O
b0 X
b0 '
b0 b
b0 h
18
b1 ;
b1 N
b1 R
09
0-
b0 :
b0 J
b0 T
b0 c
b10001000 S
b0 <
b0 H
b1100011 0
b1100011 P
b1010 ,
b1010 ^
b1011 *
b1011 `
b1100 /
b1100 ]
b1100 ?
b1100 5
b1100 F
b1100011 E
b101101010000011001100011 &
b101101010000011001100011 D
b100110000 @
b100101000 A
b100101000 \
b100101000 e
b100101000 f
b100101000 $
b100101000 C
b100100100 B
b100100100 Z
1!
#160000
0!
#162000
1>
b0 =
b0 I
b0 O
08
b11 ;
b11 N
b11 R
19
1-
b11011 S
b10011 0
b10011 P
b0 ,
b0 ^
b0 *
b0 `
b1010 /
b1010 ]
b0 ?
b0 5
b0 F
b10011 E
b10100010011 &
b10100010011 D
b100101000 @
b100101100 A
b100101100 \
b100101100 e
b100101100 f
b100101100 $
b100101100 C
b100101000 B
b100101000 Z
1!
#164000
0!
#166000
b10 g
b111100 X
b100110000 '
b100110000 b
b100110000 h
b10 4
b10 Q
b0 ;
b0 N
b0 R
09
b11110000 :
b11110000 J
b11110000 T
b11110000 c
b1000000001 S
b11110000 <
b11110000 H
b1101111 0
b1101111 P
b11110000 )
b11110000 W
b11110000 a
b1000 *
b1000 `
b0 /
b0 ]
b1000 ?
b1000 5
b1000 F
b1101111 E
b100000000000000001101111 &
b100000000000000001101111 D
b100110100 @
b100110000 A
b100110000 \
b100110000 e
b100110000 f
b100110100 $
b100110100 C
b100101100 B
b100101100 Z
1!
#168000
b1000 ?
b0 %
b0 G
b0 +
b0 _
0!
#170000
b0 g
b0 X
b0 4
b0 Q
b11 ;
b11 N
b11 R
19
b0 :
b0 J
b0 T
b0 c
b11011 S
b0 <
b0 H
b10011 0
b10011 P
b0 )
b0 W
b0 a
b0 *
b0 `
b0 ?
b0 5
b0 F
b10011 E
b100111000 $
b100111000 C
b0 '
b0 b
b0 h
b10011 &
b10011 D
b100110100 @
b100111000 A
b100111000 \
b100111000 e
b100111000 f
b100110100 B
b100110100 Z
1!
#172000
0!
#174000
0>
0(
b1111 =
b1111 I
b1111 O
b0 X
b0 '
b0 b
b0 h
18
b1 ;
b1 N
b1 R
09
0-
b0 :
b0 J
b0 T
b0 c
b10001000 S
b0 <
b0 H
b1100011 0
b1100011 P
b1010 ,
b1010 ^
b10000 /
b10000 ]
b10000 ?
b10000 5
b10000 F
b1100011 E
b1010000100001100011 &
b1010000100001100011 D
b101001000 @
b100111100 A
b100111100 \
b100111100 e
b100111100 f
b100111100 $
b100111100 C
b100111000 B
b100111000 Z
1!
#176000
0!
#178000
1>
b0 =
b0 I
b0 O
08
b11 ;
b11 N
b11 R
19
1-
b11011 S
b10011 0
b10011 P
b0 ,
b0 ^
b1010 /
b1010 ]
b0 ?
b0 5
b0 F
b10011 E
b10100010011 &
b10100010011 D
b100111100 @
b101000000 A
b101000000 \
b101000000 e
b101000000 f
b101000000 $
b101000000 C
b100111100 B
b100111100 Z
1!
#180000
0!
#182000
b10 g
b111100 X
b101000100 '
b101000100 b
b101000100 h
b10 4
b10 Q
b0 ;
b0 N
b0 R
09
b11110000 :
b11110000 J
b11110000 T
b11110000 c
b1000000001 S
b11110000 <
b11110000 H
b1101111 0
b1101111 P
b100 6
b100 L
b11110000 )
b11110000 W
b11110000 a
b1000 *
b1000 `
b0 /
b0 ]
b10001000 ?
b10001000 5
b10001000 F
b1101111 E
b1000100000000000000001101111 &
b1000100000000000000001101111 D
b111001000 @
b101000100 A
b101000100 \
b101000100 e
b101000100 f
b111001000 $
b111001000 C
b101000000 B
b101000000 Z
1!
#184000
b10001000 ?
b0 %
b0 G
b0 +
b0 _
0!
#186000
b1000000 X
b100000000 :
b100000000 J
b100000000 T
b100000000 c
b0 g
b0 4
b0 Q
b11 ;
b11 N
b11 R
19
b11011 S
b10000 <
b10000 H
b10011 0
b10011 P
b0 6
b0 L
b11110000 %
b11110000 G
b11110000 +
b11110000 _
b1000 ,
b1000 ^
b0 )
b0 W
b0 a
b10000 *
b10000 `
b10 /
b10 ]
b100000000 ?
b10000 5
b10000 F
b10011 E
b111001100 $
b111001100 C
b100000000 '
b100000000 b
b100000000 h
b1000001000000000100010011 &
b1000001000000000100010011 D
b111011000 @
b111001100 A
b111001100 \
b111001100 e
b111001100 f
b111001000 B
b111001000 Z
1!
#188000
0!
