sim.vcd
$date
	Thu Apr  7 13:14:25 2022
$end
$version
	Icarus Verilog
$end
$timescale
	10ps
$end
$scope module riscv_tb $end
$var reg 1 ! clk $end
$var reg 1 " rstn $end
$var integer 32 # i [31:0] $end
$scope module my_cpu $end
$var wire 32 $ alu_in1 [31:0] $end
$var wire 1 ! clk $end
$var wire 32 % instruction [31:0] $end
$var wire 1 " rstn $end
$var wire 32 & write_data [31:0] $end
$var wire 1 ' taken $end
$var wire 32 ( sum [31:0] $end
$var wire 32 ) sextimm_shifted [31:0] $end
$var wire 32 * sextimm_main [31:0] $end
$var wire 32 + rs2_out [31:0] $end
$var wire 5 , rs2 [4:0] $end
$var wire 32 - rs1_out [31:0] $end
$var wire 5 . rs1 [4:0] $end
$var wire 1 / reg_write $end
$var wire 32 0 read_data [31:0] $end
$var wire 5 1 rd [4:0] $end
$var wire 7 2 opcode [6:0] $end
$var wire 1 3 mem_write $end
$var wire 1 4 mem_to_reg $end
$var wire 1 5 mem_read $end
$var wire 2 6 jump [1:0] $end
$var wire 7 7 funct7 [6:0] $end
$var wire 3 8 funct3 [2:0] $end
$var wire 1 9 branch $end
$var wire 1 : alu_src $end
$var wire 32 ; alu_out [31:0] $end
$var wire 2 < alu_op [1:0] $end
$var wire 32 = alu_in2 [31:0] $end
$var wire 4 > alu_func [3:0] $end
$var wire 1 ? alu_check $end
$var wire 32 @ PC_PLUS_4 [31:0] $end
$var wire 32 A NEXT_PC [31:0] $end
$var reg 32 B PC [31:0] $end
$scope module add_sextimm $end
$var wire 32 C in_a [31:0] $end
$var wire 32 D in_b [31:0] $end
$var reg 32 E result [31:0] $end
$upscope $end
$scope module m_ALU $end
$var wire 32 F in_a [31:0] $end
$var wire 32 G in_b [31:0] $end
$var wire 4 H alu_func [3:0] $end
$var reg 1 ? check $end
$var reg 32 I result [31:0] $end
$upscope $end
$scope module m_ALU_control $end
$var wire 3 J funct3 [2:0] $end
$var wire 7 K funct7 [6:0] $end
$var wire 4 L funct [3:0] $end
$var wire 2 M alu_op [1:0] $end
$var reg 4 N alu_func [3:0] $end
$upscope $end
$scope module m_branch_control $end
$var wire 1 ? check $end
$var wire 1 9 branch $end
$var reg 1 ' taken $end
$upscope $end
$scope module m_control $end
$var wire 7 O opcode [6:0] $end
$var wire 1 / reg_write $end
$var wire 1 3 mem_write $end
$var wire 1 4 mem_to_reg $end
$var wire 1 5 mem_read $end
$var wire 2 P jump [1:0] $end
$var wire 1 9 branch $end
$var wire 1 : alu_src $end
$var wire 2 Q alu_op [1:0] $end
$var reg 10 R controls [9:0] $end
$upscope $end
$scope module m_data_memory $end
$var wire 32 S address [31:0] $end
$var wire 1 ! clk $end
$var wire 2 T maskmode [1:0] $end
$var wire 1 5 mem_read $end
$var wire 1 3 mem_write $end
$var wire 1 U sext $end
$var wire 32 V write_data [31:0] $end
$var wire 8 W address_internal [7:0] $end
$var reg 32 X read_data [31:0] $end
$upscope $end
$scope module m_next_pc_adder $end
$var wire 32 Y in_a [31:0] $end
$var wire 32 Z in_b [31:0] $end
$var reg 32 [ result [31:0] $end
$upscope $end
$scope module m_register_file $end
$var wire 1 ! clk $end
$var wire 5 \ rd [4:0] $end
$var wire 1 / reg_write $end
$var wire 5 ] rs1 [4:0] $end
$var wire 32 ^ rs1_out [31:0] $end
$var wire 5 _ rs2 [4:0] $end
$var wire 32 ` rs2_out [31:0] $end
$var wire 32 a write_data [31:0] $end
$upscope $end
$scope module mux_alu $end
$var wire 32 b in1 [31:0] $end
$var wire 1 : select $end
$var wire 32 c in2 [31:0] $end
$var reg 32 d out [31:0] $end
$upscope $end
$scope module mux_sextimm $end
$var wire 32 e in1 [31:0] $end
$var wire 32 f in2 [31:0] $end
$var wire 1 ' select $end
$var reg 32 g out [31:0] $end
$upscope $end
$scope module mux_wb $end
$var wire 32 h in1 [31:0] $end
$var wire 32 i in2 [31:0] $end
$var wire 1 4 select $end
$var reg 32 j out [31:0] $end
$upscope $end
$scope module sextimm_imm $end
$var wire 32 k instruction [31:0] $end
$var wire 7 l opcode [6:0] $end
$var reg 32 m sextimm [31:0] $end
$upscope $end
$upscope $end
$upscope $end
$enddefinitions $end
#0
$dumpvars
bx m
bx l
bx k
b0 j
b0 i
bx h
bx g
bx f
bx e
bx d
bx c
bx b
b0 a
bx `
bx _
bx ^
bx ]
bx \
bx [
b100 Z
bx Y
b0 X
bx W
bx V
xU
bx T
bx S
bx R
bx Q
bx P
bx O
bx N
bx M
bx L
bx K
bx J
bx I
bx H
bx G
bx F
bx E
bx0 D
bx C
bx B
bx A
bx @
x?
bx >
bx =
bx <
bx ;
x:
x9
bx 8
bx 7
bx 6
x5
x4
x3
bx 2
bx 1
b0 0
x/
bx .
bx -
bx ,
bx +
bx *
bx0 )
bx (
x'
b0 &
bx %
bx $
b1000000 #
0"
0!
$end
#2000
b11100000 &
b11100000 a
b11100000 j
0'
b0 6
b0 P
09
05
04
b11 <
b11 M
b11 Q
03
1:
1/
0?
b111000 W
b11111111111111111111111111000000 (
b11111111111111111111111111000000 E
b11111111111111111111111111000000 f
b11011 R
b0 T
0U
b0 >
b0 H
b0 N
b11100000 ;
b11100000 I
b11100000 S
b11100000 h
b11111111111111111111111111000000 )
b11111111111111111111111111000000 D
b11111111111111111111111111100000 =
b11111111111111111111111111100000 G
b11111111111111111111111111100000 d
b10011 2
b10011 O
b1111111 7
b1111111 K
b1000 L
b0 8
b0 J
b100000000 $
b100000000 F
b100000000 -
b100000000 ^
b10 .
b10 ]
b0 +
b0 V
b0 `
b0 b
b0 ,
b0 _
b10 1
b10 \
b11111111111111111111111111100000 *
b11111111111111111111111111100000 c
b11111111111111111111111111100000 m
b10011 l
b100 A
b100 g
b11111110000000010000000100010011 %
b11111110000000010000000100010011 k
b100 @
b100 [
b100 e
b0 B
b0 C
b0 Y
1!
#4000
b110000 W
b11000000 &
b11000000 a
b11000000 j
b11000000 ;
b11000000 I
b11000000 S
b11000000 h
b11100000 $
b11100000 F
b11100000 -
b11100000 ^
0!
#6000
b111111 W
b11111100 &
b11111100 a
b11111100 j
b0 <
b0 M
b0 Q
13
0/
b11111100 ;
b11111100 I
b11111100 S
b11111100 h
b110 R
b10 T
b0 >
b0 H
b0 N
b111000 )
b111000 D
b11100 =
b11100 G
b11100 d
b100011 2
b100011 O
b0 7
b0 K
b10 L
b10 8
b10 J
b1000 ,
b1000 _
b11100 1
b11100 \
b11100 *
b11100 c
b11100 m
b100011 l
b1000 A
b1000 g
b100000010010111000100011 %
b100000010010111000100011 k
b111100 (
b111100 E
b111100 f
b1000 @
b1000 [
b1000 e
b100 B
b100 C
b100 Y
1!
1"
#8000
0!
#10000
b111110 W
b11111000 &
b11111000 a
b11111000 j
b11111000 ;
b11111000 I
b11111000 S
b11111000 h
b110000 )
b110000 D
b11000 =
b11000 G
b11000 d
b11011000 +
b11011000 V
b11011000 `
b11011000 b
b1 ,
b1 _
b11000 1
b11000 \
b11000 *
b11000 c
b11000 m
b1100 A
b1100 g
b100010010110000100011 %
b100010010110000100011 k
b111000 (
b111000 E
b111000 f
b1100 @
b1100 [
b1100 e
b1000 B
b1000 C
b1000 Y
1!
#12000
0!
#14000
b111100 W
b11110000 &
b11110000 a
b11110000 j
b11 <
b11 M
b11 Q
03
1/
b11110000 ;
b11110000 I
b11110000 S
b11110000 h
b11011 R
b0 T
b100000 )
b100000 D
b10000 =
b10000 G
b10000 d
b10011 2
b10011 O
b0 L
b0 8
b0 J
b0 +
b0 V
b0 `
b0 b
b10000 ,
b10000 _
b1000 1
b1000 \
b10000 *
b10000 c
b10000 m
b10011 l
b10000 A
b10000 g
b1000000010000010000010011 %
b1000000010000010000010011 k
b101100 (
b101100 E
b101100 f
b10000 @
b10000 [
b10000 e
b1100 B
b1100 C
b1100 Y
1!
#16000
0!
#18000
b0 <
b0 M
b0 Q
13
0/
b111011 W
b11101100 &
b11101100 a
b11101100 j
b110 R
b10 T
b0 >
b0 H
b0 N
b11101100 ;
b11101100 I
b11101100 S
b11101100 h
b11111111111111111111111111111000 )
b11111111111111111111111111111000 D
b11111111111111111111111111111100 =
b11111111111111111111111111111100 G
b11111111111111111111111111111100 d
b100011 2
b100011 O
b1111111 7
b1111111 K
b1010 L
b10 8
b10 J
b11110000 $
b11110000 F
b11110000 -
b11110000 ^
b1000 .
b1000 ]
b10 +
b10 V
b10 `
b10 b
b1010 ,
b1010 _
b11100 1
b11100 \
b11111111111111111111111111111100 *
b11111111111111111111111111111100 c
b11111111111111111111111111111100 m
b100011 l
b10100 A
b10100 g
b11111110101001000010111000100011 %
b11111110101001000010111000100011 k
b1000 (
b1000 E
b1000 f
b10100 @
b10100 [
b10100 e
b10000 B
b10000 C
b10000 Y
1!
#20000
0!
#22000
b111100 W
b11110000 &
b11110000 a
b11110000 j
b11 <
b11 M
b11 Q
03
1/
b11110000 ;
b11110000 I
b11110000 S
b11110000 h
b11011 R
b0 T
b0 )
b0 D
b0 =
b0 G
b0 d
b10011 2
b10011 O
b0 7
b0 K
b0 L
b0 8
b0 J
b0 +
b0 V
b0 `
b0 b
b0 ,
b0 _
b1010 1
b1010 \
b0 *
b0 c
b0 m
b10011 l
b11000 A
b11000 g
b1000000010100010011 %
b1000000010100010011 k
b10100 (
b10100 E
b10100 f
b11000 @
b11000 [
b11000 e
b10100 B
b10100 C
b10100 Y
1!
#24000
0!
#26000
b111011 W
b11101100 &
b11101100 a
b11101100 j
b11101100 ;
b11101100 I
b11101100 S
b11101100 h
b1000 L
b11111111111111111111111111111000 )
b11111111111111111111111111111000 D
b11111111111111111111111111111100 =
b11111111111111111111111111111100 G
b11111111111111111111111111111100 d
b1111111 7
b1111111 K
b1010 .
b1010 ]
b11100 ,
b11100 _
b11111111111111111111111111111100 *
b11111111111111111111111111111100 c
b11111111111111111111111111111100 m
b11100 A
b11100 g
b11111111110001010000010100010011 %
b11111111110001010000010100010011 k
b10000 (
b10000 E
b10000 f
b11100 @
b11100 [
b11100 e
b11000 B
b11000 C
b11000 Y
1!
#28000
b111010 W
b11101000 &
b11101000 a
b11101000 j
b11101000 ;
b11101000 I
b11101000 S
b11101000 h
b11101100 $
b11101100 F
b11101100 -
b11101100 ^
0!
#30000
b10 0
b10 X
b10 i
b111011 W
b10 &
b10 a
b10 j
15
14
b0 <
b0 M
b0 Q
b11101100 ;
b11101100 I
b11101100 S
b11101100 h
b1100011 R
b10 T
b0 >
b0 H
b0 N
b0 )
b0 D
b0 =
b0 G
b0 d
b11 2
b11 O
b0 7
b0 K
b10 L
b10 8
b10 J
b0 ,
b0 _
b0 *
b0 c
b0 m
b11 l
b100000 A
b100000 g
b1010010010100000011 %
b1010010010100000011 k
b11100 (
b11100 E
b11100 f
b100000 @
b100000 [
b100000 e
b11100 B
b11100 C
b11100 Y
1!
#32000
b0 &
b0 a
b0 j
b0 0
b0 X
b0 i
b0 W
b10 ;
b10 I
b10 S
b10 h
b10 $
b10 F
b10 -
b10 ^
0!
#34000
05
04
b11 <
b11 M
b11 Q
b11011 R
b0 T
b0 ;
b0 I
b0 S
b0 h
b10011 2
b10011 O
b0 L
b0 8
b0 J
b0 $
b0 F
b0 -
b0 ^
b0 .
b0 ]
b1011 1
b1011 \
b10011 l
b100100 A
b100100 g
b10110010011 %
b10110010011 k
b100000 (
b100000 E
b100000 f
b100100 @
b100100 [
b100100 e
b100000 B
b100000 C
b100000 Y
1!
#36000
0!
#38000
b1 >
b1 H
b1 N
19
b1 <
b1 M
b1 Q
0:
0/
b0 W
b10 &
b10 a
b10 j
b10001000 R
b10 ;
b10 I
b10 S
b10 h
b1100 )
b1100 D
b0 =
b0 G
b0 d
b1100011 2
b1100011 O
b10 $
b10 F
b10 -
b10 ^
b1010 .
b1010 ]
b1011 ,
b1011 _
b1100 1
b1100 \
b110 *
b110 c
b110 m
b1100011 l
b101000 A
b101000 g
b101101010000011001100011 %
b101101010000011001100011 k
b110000 (
b110000 E
b110000 f
b101000 @
b101000 [
b101000 e
b100100 B
b100100 C
b100100 Y
1!
#40000
0!
#42000
b0 >
b0 H
b0 N
09
b11 <
b11 M
b11 Q
1:
1/
b0 &
b0 a
b0 j
b11011 R
b0 ;
b0 I
b0 S
b0 h
b0 )
b0 D
b10011 2
b10011 O
b0 $
b0 F
b0 -
b0 ^
b0 .
b0 ]
b0 ,
b0 _
b1010 1
b1010 \
b0 *
b0 c
b0 m
b10011 l
b101100 A
b101100 g
b10100010011 %
b10100010011 k
b101000 (
b101000 E
b101000 f
b101100 @
b101100 [
b101100 e
b101000 B
b101000 C
b101000 Y
1!
#44000
0!
#46000
b111100 W
b11110000 &
b11110000 a
b11110000 j
b10 6
b10 P
b0 <
b0 M
b0 Q
0:
b11110000 ;
b11110000 I
b11110000 S
b11110000 h
b1000000001 R
b1000 )
b1000 D
b11110000 =
b11110000 G
b11110000 d
b1101111 2
b1101111 O
b11110000 +
b11110000 V
b11110000 `
b11110000 b
b1000 ,
b1000 _
b0 1
b0 \
b100 *
b100 c
b100 m
b1101111 l
b110000 A
b110000 g
b100000000000000001101111 %
b100000000000000001101111 k
b110100 (
b110100 E
b110100 f
b110000 @
b110000 [
b110000 e
b101100 B
b101100 C
b101100 Y
1!
#48000
b0 $
b0 F
b0 -
b0 ^
0!
#50000
b0 W
b1 &
b1 a
b1 j
b0 6
b0 P
b11 <
b11 M
b11 Q
1:
b1 ;
b1 I
b1 S
b1 h
b11011 R
b10 )
b10 D
b1 =
b1 G
b1 d
b10011 2
b10011 O
b11011000 +
b11011000 V
b11011000 `
b11011000 b
b1 ,
b1 _
b1010 1
b1010 \
b1 *
b1 c
b1 m
b10011 l
b110100 A
b110100 g
b100000000010100010011 %
b100000000010100010011 k
b110010 (
b110010 E
b110010 f
b110100 @
b110100 [
b110100 e
b110000 B
b110000 C
b110000 Y
1!
#52000
0!
#54000
b0 &
b0 a
b0 j
b0 ;
b0 I
b0 S
b0 h
b0 )
b0 D
b0 =
b0 G
b0 d
b0 +
b0 V
b0 `
b0 b
b0 ,
b0 _
b0 1
b0 \
b0 *
b0 c
b0 m
b111000 A
b111000 g
b10011 %
b10011 k
b110100 (
b110100 E
b110100 f
b111000 @
b111000 [
b111000 e
b110100 B
b110100 C
b110100 Y
1!
#56000
0!
#58000
b1 >
b1 H
b1 N
19
b1 <
b1 M
b1 Q
0:
0/
b0 W
b1 &
b1 a
b1 j
b10001000 R
b1 ;
b1 I
b1 S
b1 h
b10000 )
b10000 D
b0 =
b0 G
b0 d
b1100011 2
b1100011 O
b1 $
b1 F
b1 -
b1 ^
b1010 .
b1010 ]
b10000 1
b10000 \
b1000 *
b1000 c
b1000 m
b1100011 l
b111100 A
b111100 g
b1010000100001100011 %
b1010000100001100011 k
b1001000 (
b1001000 E
b1001000 f
b111100 @
b111100 [
b111100 e
b111000 B
b111000 C
b111000 Y
1!
#60000
0!
#62000
b0 >
b0 H
b0 N
09
b11 <
b11 M
b11 Q
1:
1/
b0 &
b0 a
b0 j
b11011 R
b0 ;
b0 I
b0 S
b0 h
b0 )
b0 D
b10011 2
b10011 O
b0 $
b0 F
b0 -
b0 ^
b0 .
b0 ]
b1010 1
b1010 \
b0 *
b0 c
b0 m
b10011 l
b1000000 A
b1000000 g
b10100010011 %
b10100010011 k
b111100 (
b111100 E
b111100 f
b1000000 @
b1000000 [
b1000000 e
b111100 B
b111100 C
b111100 Y
1!
#64000
0!
#66000
b111100 W
b11110000 &
b11110000 a
b11110000 j
b10 6
b10 P
b0 <
b0 M
b0 Q
0:
b11110000 ;
b11110000 I
b11110000 S
b11110000 h
b1000000001 R
b10001000 )
b10001000 D
b11110000 =
b11110000 G
b11110000 d
b1101111 2
b1101111 O
b100 7
b100 K
b11110000 +
b11110000 V
b11110000 `
b11110000 b
b1000 ,
b1000 _
b0 1
b0 \
b1000100 *
b1000100 c
b1000100 m
b1101111 l
b1000100 A
b1000100 g
b1000100000000000000001101111 %
b1000100000000000000001101111 k
b11001000 (
b11001000 E
b11001000 f
b1000100 @
b1000100 [
b1000100 e
b1000000 B
b1000000 C
b1000000 Y
1!
#68000
b0 $
b0 F
b0 -
b0 ^
0!
#70000
b0 W
b0 &
b0 a
b0 j
b0 ;
b0 I
b0 S
b0 h
b10000100 )
b10000100 D
b0 =
b0 G
b0 d
b0 +
b0 V
b0 `
b0 b
b100 ,
b100 _
b1000010 *
b1000010 c
b1000010 m
b1001000 A
b1001000 g
b1000010000000000000001101111 %
b1000010000000000000001101111 k
b11001000 (
b11001000 E
b11001000 f
b1001000 @
b1001000 [
b1001000 e
b1000100 B
b1000100 C
b1000100 Y
1!
#72000
0!
#74000
b0 6
b0 P
b11 <
b11 M
b11 Q
1:
b111100 W
b11110000 &
b11110000 a
b11110000 j
b11011 R
b11110000 ;
b11110000 I
b11110000 S
b11110000 h
b0 )
b0 D
b10011 2
b10011 O
b0 7
b0 K
b11110000 $
b11110000 F
b11110000 -
b11110000 ^
b1000 .
b1000 ]
b0 ,
b0 _
b1010 1
b1010 \
b0 *
b0 c
b0 m
b10011 l
b1001100 A
b1001100 g
b1000000010100010011 %
b1000000010100010011 k
b1001000 (
b1001000 E
b1001000 f
b1001100 @
b1001100 [
b1001100 e
b1001000 B
b1001000 C
b1001000 Y
1!
#76000
0!
#78000
b111011 W
b11101100 &
b11101100 a
b11101100 j
b11101100 ;
b11101100 I
b11101100 S
b11101100 h
b1000 L
b11111111111111111111111111111000 )
b11111111111111111111111111111000 D
b11111111111111111111111111111100 =
b11111111111111111111111111111100 G
b11111111111111111111111111111100 d
b1111111 7
b1111111 K
b1010 .
b1010 ]
b11100 ,
b11100 _
b11111111111111111111111111111100 *
b11111111111111111111111111111100 c
b11111111111111111111111111111100 m
b1010000 A
b1010000 g
b11111111110001010000010100010011 %
b11111111110001010000010100010011 k
b1000100 (
b1000100 E
b1000100 f
b1010000 @
b1010000 [
b1010000 e
b1001100 B
b1001100 C
b1001100 Y
1!
#80000
b111010 W
b11101000 &
b11101000 a
b11101000 j
b11101000 ;
b11101000 I
b11101000 S
b11101000 h
b11101100 $
b11101100 F
b11101100 -
b11101100 ^
0!
#82000
b10 0
b10 X
b10 i
b111011 W
b10 &
b10 a
b10 j
15
14
b0 <
b0 M
b0 Q
b11101100 ;
b11101100 I
b11101100 S
b11101100 h
b1100011 R
b10 T
b0 >
b0 H
b0 N
b0 )
b0 D
b0 =
b0 G
b0 d
b11 2
b11 O
b0 7
b0 K
b10 L
b10 8
b10 J
b0 ,
b0 _
b0 *
b0 c
b0 m
b11 l
b1010100 A
b1010100 g
b1010010010100000011 %
b1010010010100000011 k
b1010000 (
b1010000 E
b1010000 f
b1010100 @
b1010100 [
b1010100 e
b1010000 B
b1010000 C
b1010000 Y
1!
#84000
b0 &
b0 a
b0 j
b0 0
b0 X
b0 i
b0 W
b10 ;
b10 I
b10 S
b10 h
b10 $
b10 F
b10 -
b10 ^
0!
#86000
b1 &
b1 a
b1 j
05
04
b11 <
b11 M
b11 Q
b11011 R
b0 T
b1 ;
b1 I
b1 S
b1 h
b10 )
b10 D
b1 =
b1 G
b1 d
b10011 2
b10011 O
b0 L
b0 8
b0 J
b0 $
b0 F
b0 -
b0 ^
b0 .
b0 ]
b11011000 +
b11011000 V
b11011000 `
b11011000 b
b1 ,
b1 _
b1011 1
b1011 \
b1 *
b1 c
b1 m
b10011 l
b1011000 A
b1011000 g
b100000000010110010011 %
b100000000010110010011 k
b1010110 (
b1010110 E
b1010110 f
b1011000 @
b1011000 [
b1011000 e
b1010100 B
b1010100 C
b1010100 Y
1!
#88000
0!
#90000
b1 >
b1 H
b1 N
19
b1 <
b1 M
b1 Q
0:
0/
b0 W
b1 &
b1 a
b1 j
b10001000 R
b1 ;
b1 I
b1 S
b1 h
b1100 )
b1100 D
b1 =
b1 G
b1 d
b1100011 2
b1100011 O
b10 $
b10 F
b10 -
b10 ^
b1010 .
b1010 ]
b1 +
b1 V
b1 `
b1 b
b1011 ,
b1011 _
b1100 1
b1100 \
b110 *
b110 c
b110 m
b1100011 l
b1011100 A
b1011100 g
b101101010000011001100011 %
b101101010000011001100011 k
b1100100 (
b1100100 E
b1100100 f
b1011100 @
b1011100 [
b1011100 e
b1011000 B
b1011000 C
b1011000 Y
1!
#92000
0!
#94000
b0 >
b0 H
b0 N
09
b11 <
b11 M
b11 Q
1:
1/
b0 &
b0 a
b0 j
b11011 R
b0 ;
b0 I
b0 S
b0 h
b0 )
b0 D
b0 =
b0 G
b0 d
b10011 2
b10011 O
b0 $
b0 F
b0 -
b0 ^
b0 .
b0 ]
b0 +
b0 V
b0 `
b0 b
b0 ,
b0 _
b1010 1
b1010 \
b0 *
b0 c
b0 m
b10011 l
b1100000 A
b1100000 g
b10100010011 %
b10100010011 k
b1011100 (
b1011100 E
b1011100 f
b1100000 @
b1100000 [
b1100000 e
b1011100 B
b1011100 C
b1011100 Y
1!
#96000
0!
#98000
b111100 W
b11110000 &
b11110000 a
b11110000 j
b10 6
b10 P
b0 <
b0 M
b0 Q
0:
b11110000 ;
b11110000 I
b11110000 S
b11110000 h
b1000000001 R
b1000 )
b1000 D
b11110000 =
b11110000 G
b11110000 d
b1101111 2
b1101111 O
b11110000 +
b11110000 V
b11110000 `
b11110000 b
b1000 ,
b1000 _
b0 1
b0 \
b100 *
b100 c
b100 m
b1101111 l
b1100100 A
b1100100 g
b100000000000000001101111 %
b100000000000000001101111 k
b1101000 (
b1101000 E
b1101000 f
b1100100 @
b1100100 [
b1100100 e
b1100000 B
b1100000 C
b1100000 Y
1!
#100000
b0 $
b0 F
b0 -
b0 ^
0!
#102000
b0 W
b1 &
b1 a
b1 j
b0 6
b0 P
b11 <
b11 M
b11 Q
1:
b1 ;
b1 I
b1 S
b1 h
b11011 R
b10 )
b10 D
b1 =
b1 G
b1 d
b10011 2
b10011 O
b11011000 +
b11011000 V
b11011000 `
b11011000 b
b1 ,
b1 _
b1010 1
b1010 \
b1 *
b1 c
b1 m
b10011 l
b1101000 A
b1101000 g
b100000000010100010011 %
b100000000010100010011 k
b1100110 (
b1100110 E
b1100110 f
b1101000 @
b1101000 [
b1101000 e
b1100100 B
b1100100 C
b1100100 Y
1!
#104000
0!
#106000
b0 &
b0 a
b0 j
b0 ;
b0 I
b0 S
b0 h
b0 )
b0 D
b0 =
b0 G
b0 d
b0 +
b0 V
b0 `
b0 b
b0 ,
b0 _
b0 1
b0 \
b0 *
b0 c
b0 m
b1101100 A
b1101100 g
b10011 %
b10011 k
b1101000 (
b1101000 E
b1101000 f
b1101100 @
b1101100 [
b1101100 e
b1101000 B
b1101000 C
b1101000 Y
1!
#108000
0!
#110000
b1 >
b1 H
b1 N
19
b1 <
b1 M
b1 Q
0:
0/
b0 W
b1 &
b1 a
b1 j
b10001000 R
b1 ;
b1 I
b1 S
b1 h
b10000 )
b10000 D
b0 =
b0 G
b0 d
b1100011 2
b1100011 O
b1 $
b1 F
b1 -
b1 ^
b1010 .
b1010 ]
b10000 1
b10000 \
b1000 *
b1000 c
b1000 m
b1100011 l
b1110000 A
b1110000 g
b1010000100001100011 %
b1010000100001100011 k
b1111100 (
b1111100 E
b1111100 f
b1110000 @
b1110000 [
b1110000 e
b1101100 B
b1101100 C
b1101100 Y
1!
#112000
0!
#114000
b0 >
b0 H
b0 N
09
b11 <
b11 M
b11 Q
1:
1/
b0 W
b1 &
b1 a
b1 j
b11011 R
b1 ;
b1 I
b1 S
b1 h
b10 )
b10 D
b1 =
b1 G
b1 d
b10011 2
b10011 O
b0 $
b0 F
b0 -
b0 ^
b0 .
b0 ]
b11011000 +
b11011000 V
b11011000 `
b11011000 b
b1 ,
b1 _
b1010 1
b1010 \
b1 *
b1 c
b1 m
b10011 l
b1110100 A
b1110100 g
b100000000010100010011 %
b100000000010100010011 k
b1110010 (
b1110010 E
b1110010 f
b1110100 @
b1110100 [
b1110100 e
b1110000 B
b1110000 C
b1110000 Y
1!
#116000
0!
#118000
b0 W
b0 &
b0 a
b0 j
b10 6
b10 P
b0 <
b0 M
b0 Q
0:
b0 ;
b0 I
b0 S
b0 h
b1000000001 R
b1010100 )
b1010100 D
b0 =
b0 G
b0 d
b1101111 2
b1101111 O
b10 7
b10 K
b0 +
b0 V
b0 `
b0 b
b10100 ,
b10100 _
b0 1
b0 \
b101010 *
b101010 c
b101010 m
b1101111 l
b1111000 A
b1111000 g
b101010000000000000001101111 %
b101010000000000000001101111 k
b11001000 (
b11001000 E
b11001000 f
b1111000 @
b1111000 [
b1111000 e
b1110100 B
b1110100 C
b1110100 Y
1!
#120000
0!
#122000
b1010000 )
b1010000 D
b10000 ,
b10000 _
b101000 *
b101000 c
b101000 m
b1111100 A
b1111100 g
b101000000000000000001101111 %
b101000000000000000001101111 k
b11001000 (
b11001000 E
b11001000 f
b1111100 @
b1111100 [
b1111100 e
b1111000 B
b1111000 C
b1111000 Y
1!
#124000
0!
#126000
b0 6
b0 P
b11 <
b11 M
b11 Q
1:
b111100 W
b11110000 &
b11110000 a
b11110000 j
b11011 R
b11110000 ;
b11110000 I
b11110000 S
b11110000 h
b0 )
b0 D
b10011 2
b10011 O
b0 7
b0 K
b11110000 $
b11110000 F
b11110000 -
b11110000 ^
b1000 .
b1000 ]
b0 ,
b0 _
b1010 1
b1010 \
b0 *
b0 c
b0 m
b10011 l
b10000000 A
b10000000 g
b1000000010100010011 %
b1000000010100010011 k
b1111100 (
b1111100 E
b1111100 f
b10000000 @
b10000000 [
b10000000 e
b1111100 B
b1111100 C
b1111100 Y
1!
#128000
0!
#130000
b111011 W
b11101100 &
b11101100 a
b11101100 j
b11101100 ;
b11101100 I
b11101100 S
b11101100 h
b1000 L
b11111111111111111111111111111000 )
b11111111111111111111111111111000 D
b11111111111111111111111111111100 =
b11111111111111111111111111111100 G
b11111111111111111111111111111100 d
b1111111 7
b1111111 K
b1010 .
b1010 ]
b11100 ,
b11100 _
b11111111111111111111111111111100 *
b11111111111111111111111111111100 c
b11111111111111111111111111111100 m
b10000100 A
b10000100 g
b11111111110001010000010100010011 %
b11111111110001010000010100010011 k
b1111000 (
b1111000 E
b1111000 f
b10000100 @
b10000100 [
b10000100 e
b10000000 B
b10000000 C
b10000000 Y
1!
#132000
b111010 W
b11101000 &
b11101000 a
b11101000 j
b11101000 ;
b11101000 I
b11101000 S
b11101000 h
b11101100 $
b11101100 F
b11101100 -
b11101100 ^
0!
#134000
b10 0
b10 X
b10 i
b111011 W
b10 &
b10 a
b10 j
15
14
b0 <
b0 M
b0 Q
b11101100 ;
b11101100 I
b11101100 S
b11101100 h
b1100011 R
b10 T
b0 >
b0 H
b0 N
b0 )
b0 D
b0 =
b0 G
b0 d
b11 2
b11 O
b0 7
b0 K
b10 L
b10 8
b10 J
b0 ,
b0 _
b0 *
b0 c
b0 m
b11 l
b10001000 A
b10001000 g
b1010010010100000011 %
b1010010010100000011 k
b10000100 (
b10000100 E
b10000100 f
b10001000 @
b10001000 [
b10001000 e
b10000100 B
b10000100 C
b10000100 Y
1!
#136000
b0 &
b0 a
b0 j
b0 0
b0 X
b0 i
b0 W
b10 ;
b10 I
b10 S
b10 h
b10 $
b10 F
b10 -
b10 ^
0!
#138000
b1 &
b1 a
b1 j
05
04
b11 <
b11 M
b11 Q
b11011 R
b0 T
b1 ;
b1 I
b1 S
b1 h
b10 )
b10 D
b1 =
b1 G
b1 d
b10011 2
b10011 O
b0 L
b0 8
b0 J
b0 $
b0 F
b0 -
b0 ^
b0 .
b0 ]
b11011000 +
b11011000 V
b11011000 `
b11011000 b
b1 ,
b1 _
b1011 1
b1011 \
b1 *
b1 c
b1 m
b10011 l
b10001100 A
b10001100 g
b100000000010110010011 %
b100000000010110010011 k
b10001010 (
b10001010 E
b10001010 f
b10001100 @
b10001100 [
b10001100 e
b10001000 B
b10001000 C
b10001000 Y
1!
#140000
0!
#142000
b1 >
b1 H
b1 N
b10 <
b10 M
b10 Q
0:
b1 &
b1 a
b1 j
b10001 R
b1000 L
b1 ;
b1 I
b1 S
b1 h
b0 )
b0 D
b1 =
b1 G
b1 d
b110011 2
b110011 O
b100000 7
b100000 K
b10 $
b10 F
b10 -
b10 ^
b1010 .
b1010 ]
b1 +
b1 V
b1 `
b1 b
b1011 ,
b1011 _
b1010 1
b1010 \
b0 *
b0 c
b0 m
b110011 l
b10010000 A
b10010000 g
b1000000101101010000010100110011 %
b1000000101101010000010100110011 k
b10001100 (
b10001100 E
b10001100 f
b10010000 @
b10010000 [
b10010000 e
b10001100 B
b10001100 C
b10001100 Y
1!
#144000
b0 &
b0 a
b0 j
b0 ;
b0 I
b0 S
b0 h
b1 $
b1 F
b1 -
b1 ^
0!
#146000
b10 6
b10 P
b0 <
b0 M
b0 Q
b1000000001 R
b11 T
1U
b0 >
b0 H
b0 N
b11111111111111111111111101110000 )
b11111111111111111111111101110000 D
b0 =
b0 G
b0 d
b1101111 2
b1101111 O
b1111011 7
b1111011 K
b1111 L
b111 8
b111 J
b0 $
b0 F
b0 -
b0 ^
b11111 .
b11111 ]
b0 +
b0 V
b0 `
b0 b
b10001 ,
b10001 _
b1 1
b1 \
b11111111111111111111111110111000 *
b11111111111111111111111110111000 c
b11111111111111111111111110111000 m
b1101111 l
b10010100 A
b10010100 g
b11110111000111111111000011101111 %
b11110111000111111111000011101111 k
b0 (
b0 E
b0 f
b10010100 @
b10010100 [
b10010100 e
b10010000 B
b10010000 C
b10010000 Y
1!
#148000
0!
