sim.vcd
$date
	Sat Apr  9 21:51:54 2022
$end
$version
	Icarus Verilog
$end
$timescale
	10ps
$end
$scope module riscv_tb $end
$var reg 1 ! clk $end
$var reg 1 " rstn $end
$var integer 32 # i [31:0] $end
$scope module my_cpu $end
$var wire 32 $ NEXT_PC [31:0] $end
$var wire 32 % alu_in1 [31:0] $end
$var wire 1 ! clk $end
$var wire 32 & instruction [31:0] $end
$var wire 1 " rstn $end
$var wire 32 ' write_data [31:0] $end
$var wire 1 ( taken $end
$var wire 32 ) sextimm_sum [31:0] $end
$var wire 32 * sextimm_rs1_sum [31:0] $end
$var wire 32 + sextimm_main [31:0] $end
$var wire 32 , rs2_out [31:0] $end
$var wire 5 - rs2 [4:0] $end
$var wire 32 . rs1_out [31:0] $end
$var wire 5 / rs1 [4:0] $end
$var wire 1 0 reg_write $end
$var wire 32 1 read_data [31:0] $end
$var wire 5 2 rd [4:0] $end
$var wire 7 3 opcode [6:0] $end
$var wire 1 4 mem_write $end
$var wire 1 5 mem_to_reg $end
$var wire 1 6 mem_read $end
$var wire 2 7 jump [1:0] $end
$var wire 7 8 funct7 [6:0] $end
$var wire 3 9 funct3 [2:0] $end
$var wire 1 : branch $end
$var wire 1 ; alu_src $end
$var wire 32 < alu_out [31:0] $end
$var wire 2 = alu_op [1:0] $end
$var wire 32 > alu_in2 [31:0] $end
$var wire 4 ? alu_func [3:0] $end
$var wire 1 @ alu_check $end
$var wire 32 A PC_PLUS_4 [31:0] $end
$var reg 32 B PC [31:0] $end
$var reg 32 C sextimm_sum_result [31:0] $end
$scope module add_sextimm_rs1_sum $end
$var wire 32 D in_b [31:0] $end
$var wire 32 E in_a [31:0] $end
$var reg 32 F result [31:0] $end
$upscope $end
$scope module add_sextimm_sum $end
$var wire 32 G in_a [31:0] $end
$var wire 32 H in_b [31:0] $end
$var reg 32 I result [31:0] $end
$upscope $end
$scope module m_ALU $end
$var wire 32 J in_a [31:0] $end
$var wire 32 K in_b [31:0] $end
$var wire 4 L alu_func [3:0] $end
$var reg 1 @ check $end
$var reg 32 M result [31:0] $end
$upscope $end
$scope module m_ALU_control $end
$var wire 3 N funct3 [2:0] $end
$var wire 7 O funct7 [6:0] $end
$var wire 4 P funct [3:0] $end
$var wire 2 Q alu_op [1:0] $end
$var reg 4 R alu_func [3:0] $end
$upscope $end
$scope module m_branch_control $end
$var wire 1 @ check $end
$var wire 1 : branch $end
$var reg 1 ( taken $end
$upscope $end
$scope module m_control $end
$var wire 7 S opcode [6:0] $end
$var wire 1 0 reg_write $end
$var wire 1 4 mem_write $end
$var wire 1 5 mem_to_reg $end
$var wire 1 6 mem_read $end
$var wire 2 T jump [1:0] $end
$var wire 1 : branch $end
$var wire 1 ; alu_src $end
$var wire 2 U alu_op [1:0] $end
$var reg 10 V controls [9:0] $end
$upscope $end
$scope module m_data_memory $end
$var wire 32 W address [31:0] $end
$var wire 1 ! clk $end
$var wire 2 X maskmode [1:0] $end
$var wire 1 6 mem_read $end
$var wire 1 4 mem_write $end
$var wire 1 Y sext $end
$var wire 32 Z write_data [31:0] $end
$var wire 8 [ address_internal [7:0] $end
$var reg 32 \ read_data [31:0] $end
$upscope $end
$scope module m_next_pc_adder $end
$var wire 32 ] in_a [31:0] $end
$var wire 32 ^ in_b [31:0] $end
$var reg 32 _ result [31:0] $end
$upscope $end
$scope module m_register_file $end
$var wire 1 ! clk $end
$var wire 5 ` rd [4:0] $end
$var wire 1 0 reg_write $end
$var wire 5 a rs1 [4:0] $end
$var wire 32 b rs1_out [31:0] $end
$var wire 5 c rs2 [4:0] $end
$var wire 32 d rs2_out [31:0] $end
$var wire 32 e write_data [31:0] $end
$upscope $end
$scope module mux_alu $end
$var wire 32 f in1 [31:0] $end
$var wire 1 ; select $end
$var wire 32 g in2 [31:0] $end
$var reg 32 h out [31:0] $end
$upscope $end
$scope module mux_wb $end
$var wire 32 i in1 [31:0] $end
$var wire 32 j in2 [31:0] $end
$var wire 1 k select $end
$var reg 32 l out [31:0] $end
$upscope $end
$scope module sextimm_imm $end
$var wire 32 m instruction [31:0] $end
$var wire 7 n opcode [6:0] $end
$var reg 32 o sextimm [31:0] $end
$upscope $end
$upscope $end
$upscope $end
$enddefinitions $end
#0
$dumpvars
bx o
bx n
bx m
b0 l
xk
bx j
bx i
bx h
bx g
bx f
b0 e
bx d
bx c
bx b
bx a
bx `
bx _
b100 ^
bx ]
b0 \
bx [
bx Z
xY
bx X
bx W
bx V
bx U
bx T
bx S
bx R
bx Q
bx P
bx O
bx N
bx M
bx L
bx K
bx J
bx I
bx H
bx G
bx F
bx E
bx D
bx C
bx B
bx A
x@
bx ?
bx >
bx =
bx <
x;
x:
bx 9
bx 8
bx 7
x6
x5
x4
bx 3
bx 2
b0 1
x0
bx /
bx .
bx -
bx ,
bx +
bx *
bx )
x(
b0 '
bx &
bx %
bx $
b1000000 #
0"
0!
$end
#2000
b11100000 '
b11100000 e
b11100000 l
0k
b0 7
b0 T
0:
06
05
b11 =
b11 Q
b11 U
04
1;
10
0(
b111000 [
b11100000 i
b11011 V
b0 X
0Y
b0 ?
b0 L
b0 R
0@
b11100000 <
b11100000 M
b11100000 W
b11100000 *
b11100000 F
b11111111111111111111111111100000 )
b11111111111111111111111111100000 I
b11111111111111111111111111100000 >
b11111111111111111111111111100000 K
b11111111111111111111111111100000 h
b10011 3
b10011 S
b1111111 8
b1111111 O
b1000 P
b0 9
b0 N
b100000000 %
b100000000 J
b100000000 .
b100000000 E
b100000000 b
b10 /
b10 a
b0 ,
b0 Z
b0 d
b0 f
b0 -
b0 c
b10 2
b10 `
b11111111111111111111111111100000 +
b11111111111111111111111111100000 D
b11111111111111111111111111100000 H
b11111111111111111111111111100000 g
b11111111111111111111111111100000 o
b10011 n
b100 $
b100 C
b11111110000000010000000100010011 &
b11111110000000010000000100010011 m
b100 A
b100 _
b100 j
b0 B
b0 G
b0 ]
1!
#4000
b11000000 '
b11000000 e
b11000000 l
b110000 [
b11000000 i
b11000000 <
b11000000 M
b11000000 W
b11000000 *
b11000000 F
b11100000 %
b11100000 J
b11100000 .
b11100000 E
b11100000 b
0!
#6000
b11111100 '
b11111100 e
b11111100 l
b111111 [
b11111100 i
b0 =
b0 Q
b0 U
14
00
b11111100 <
b11111100 M
b11111100 W
b110 V
b10 X
b0 ?
b0 L
b0 R
b11111100 *
b11111100 F
b11100 >
b11100 K
b11100 h
b100011 3
b100011 S
b0 8
b0 O
b10 P
b10 9
b10 N
b1000 -
b1000 c
b11100 2
b11100 `
b11100 +
b11100 D
b11100 H
b11100 g
b11100 o
b100011 n
b1000 $
b1000 C
b100000010010111000100011 &
b100000010010111000100011 m
b100000 )
b100000 I
b1000 A
b1000 _
b1000 j
b100 B
b100 G
b100 ]
1!
1"
#8000
0!
#10000
b11111000 '
b11111000 e
b11111000 l
b111110 [
b11111000 i
b11111000 <
b11111000 M
b11111000 W
b11111000 *
b11111000 F
b11000 >
b11000 K
b11000 h
b11011000 ,
b11011000 Z
b11011000 d
b11011000 f
b1 -
b1 c
b11000 2
b11000 `
b11000 +
b11000 D
b11000 H
b11000 g
b11000 o
b1100 $
b1100 C
b100010010110000100011 &
b100010010110000100011 m
b100000 )
b100000 I
b1100 A
b1100 _
b1100 j
b1000 B
b1000 G
b1000 ]
1!
#12000
0!
#14000
b11110000 '
b11110000 e
b11110000 l
b111100 [
b11110000 i
b11 =
b11 Q
b11 U
04
10
b11110000 <
b11110000 M
b11110000 W
b11011 V
b0 X
b11110000 *
b11110000 F
b10000 >
b10000 K
b10000 h
b10011 3
b10011 S
b0 P
b0 9
b0 N
b0 ,
b0 Z
b0 d
b0 f
b10000 -
b10000 c
b1000 2
b1000 `
b10000 +
b10000 D
b10000 H
b10000 g
b10000 o
b10011 n
b10000 $
b10000 C
b1000000010000010000010011 &
b1000000010000010000010011 m
b11100 )
b11100 I
b10000 A
b10000 _
b10000 j
b1100 B
b1100 G
b1100 ]
1!
#16000
0!
#18000
b11101100 '
b11101100 e
b11101100 l
b0 =
b0 Q
b0 U
14
00
b111011 [
b11101100 i
b110 V
b10 X
b0 ?
b0 L
b0 R
b11101100 <
b11101100 M
b11101100 W
b11101100 *
b11101100 F
b11111111111111111111111111111100 >
b11111111111111111111111111111100 K
b11111111111111111111111111111100 h
b100011 3
b100011 S
b1111111 8
b1111111 O
b1010 P
b10 9
b10 N
b11110000 %
b11110000 J
b11110000 .
b11110000 E
b11110000 b
b1000 /
b1000 a
b10 ,
b10 Z
b10 d
b10 f
b1010 -
b1010 c
b11100 2
b11100 `
b11111111111111111111111111111100 +
b11111111111111111111111111111100 D
b11111111111111111111111111111100 H
b11111111111111111111111111111100 g
b11111111111111111111111111111100 o
b100011 n
b10100 $
b10100 C
b11111110101001000010111000100011 &
b11111110101001000010111000100011 m
b1100 )
b1100 I
b10100 A
b10100 _
b10100 j
b10000 B
b10000 G
b10000 ]
1!
#20000
0!
#22000
b11110000 '
b11110000 e
b11110000 l
b111100 [
b11110000 i
b11 =
b11 Q
b11 U
04
10
b11110000 <
b11110000 M
b11110000 W
b11011 V
b0 X
b11110000 *
b11110000 F
b0 >
b0 K
b0 h
b10011 3
b10011 S
b0 8
b0 O
b0 P
b0 9
b0 N
b0 ,
b0 Z
b0 d
b0 f
b0 -
b0 c
b1010 2
b1010 `
b0 +
b0 D
b0 H
b0 g
b0 o
b10011 n
b11000 $
b11000 C
b1000000010100010011 &
b1000000010100010011 m
b10100 )
b10100 I
b11000 A
b11000 _
b11000 j
b10100 B
b10100 G
b10100 ]
1!
#24000
0!
#26000
b11101100 '
b11101100 e
b11101100 l
b111011 [
b11101100 i
b11101100 <
b11101100 M
b11101100 W
b1000 P
b11101100 *
b11101100 F
b11111111111111111111111111111100 >
b11111111111111111111111111111100 K
b11111111111111111111111111111100 h
b1111111 8
b1111111 O
b1010 /
b1010 a
b11100 -
b11100 c
b11111111111111111111111111111100 +
b11111111111111111111111111111100 D
b11111111111111111111111111111100 H
b11111111111111111111111111111100 g
b11111111111111111111111111111100 o
b11100 $
b11100 C
b11111111110001010000010100010011 &
b11111111110001010000010100010011 m
b10100 )
b10100 I
b11100 A
b11100 _
b11100 j
b11000 B
b11000 G
b11000 ]
1!
#28000
b11101000 '
b11101000 e
b11101000 l
b111010 [
b11101000 i
b11101000 <
b11101000 M
b11101000 W
b11101000 *
b11101000 F
b11101100 %
b11101100 J
b11101100 .
b11101100 E
b11101100 b
0!
#30000
b10 1
b10 \
b10 '
b10 e
b10 l
b111011 [
b10 i
16
15
b0 =
b0 Q
b0 U
b11101100 <
b11101100 M
b11101100 W
b1100011 V
b10 X
b0 ?
b0 L
b0 R
b11101100 *
b11101100 F
b0 >
b0 K
b0 h
b11 3
b11 S
b0 8
b0 O
b10 P
b10 9
b10 N
b0 -
b0 c
b0 +
b0 D
b0 H
b0 g
b0 o
b11 n
b100000 $
b100000 C
b1010010010100000011 &
b1010010010100000011 m
b11100 )
b11100 I
b100000 A
b100000 _
b100000 j
b11100 B
b11100 G
b11100 ]
1!
#32000
b0 '
b0 e
b0 l
b0 i
b0 1
b0 \
b0 [
b10 <
b10 M
b10 W
b10 *
b10 F
b10 %
b10 J
b10 .
b10 E
b10 b
0!
#34000
06
05
b11 =
b11 Q
b11 U
b11011 V
b0 X
b0 <
b0 M
b0 W
b0 *
b0 F
b10011 3
b10011 S
b0 P
b0 9
b0 N
b0 %
b0 J
b0 .
b0 E
b0 b
b0 /
b0 a
b1011 2
b1011 `
b10011 n
b100100 $
b100100 C
b10110010011 &
b10110010011 m
b100000 )
b100000 I
b100100 A
b100100 _
b100100 j
b100000 B
b100000 G
b100000 ]
1!
#36000
0!
#38000
b1 ?
b1 L
b1 R
b10 '
b10 e
b10 l
1:
b1 =
b1 Q
b1 U
0;
00
b0 [
b10 i
b10001000 V
b10 <
b10 M
b10 W
b1110 *
b1110 F
b0 >
b0 K
b0 h
b1100011 3
b1100011 S
b10 %
b10 J
b10 .
b10 E
b10 b
b1010 /
b1010 a
b1011 -
b1011 c
b1100 2
b1100 `
b1100 +
b1100 D
b1100 H
b1100 g
b1100 o
b1100011 n
b101000 $
b101000 C
b101101010000011001100011 &
b101101010000011001100011 m
b110000 )
b110000 I
b101000 A
b101000 _
b101000 j
b100100 B
b100100 G
b100100 ]
1!
#40000
0!
#42000
b0 ?
b0 L
b0 R
b0 '
b0 e
b0 l
0:
b11 =
b11 Q
b11 U
1;
10
0(
b0 i
b11011 V
0@
b0 <
b0 M
b0 W
b0 *
b0 F
b10011 3
b10011 S
b0 %
b0 J
b0 .
b0 E
b0 b
b0 /
b0 a
b0 -
b0 c
b1010 2
b1010 `
b0 +
b0 D
b0 H
b0 g
b0 o
b10011 n
b101100 $
b101100 C
b10100010011 &
b10100010011 m
b101000 )
b101000 I
b101100 A
b101100 _
b101100 j
b101000 B
b101000 G
b101000 ]
1!
#44000
0!
#46000
b110000 '
b110000 e
b110000 l
1k
b111100 [
b11110000 i
b10 7
b10 T
b0 =
b0 Q
b0 U
0;
b11110000 <
b11110000 M
b11110000 W
b1000000001 V
b1000 *
b1000 F
b11110000 >
b11110000 K
b11110000 h
b1101111 3
b1101111 S
b11110000 ,
b11110000 Z
b11110000 d
b11110000 f
b1000 -
b1000 c
b0 2
b0 `
b1000 +
b1000 D
b1000 H
b1000 g
b1000 o
b1101111 n
b110100 $
b110100 C
b100000000000000001101111 &
b100000000000000001101111 m
b110100 )
b110100 I
b110000 A
b110000 _
b110000 j
b101100 B
b101100 G
b101100 ]
1!
#48000
b0 %
b0 J
b0 .
b0 E
b0 b
0!
#50000
0k
b0 [
b0 i
b0 7
b0 T
b11 =
b11 Q
b11 U
1;
b0 <
b0 M
b0 W
b11011 V
b0 *
b0 F
b0 >
b0 K
b0 h
b10011 3
b10011 S
b0 ,
b0 Z
b0 d
b0 f
b0 -
b0 c
b0 +
b0 D
b0 H
b0 g
b0 o
b10011 n
b0 '
b0 e
b0 l
b111000 $
b111000 C
b10011 &
b10011 m
b110100 )
b110100 I
b111000 A
b111000 _
b111000 j
b110100 B
b110100 G
b110100 ]
1!
#52000
0!
#54000
1(
1@
b0 '
b0 e
b0 l
b1 ?
b1 L
b1 R
b0 [
b0 i
1:
b1 =
b1 Q
b1 U
0;
00
b0 <
b0 M
b0 W
b10001000 V
b10000 *
b10000 F
b0 >
b0 K
b0 h
b1100011 3
b1100011 S
b1010 /
b1010 a
b10000 2
b10000 `
b10000 +
b10000 D
b10000 H
b10000 g
b10000 o
b1100011 n
b1001000 $
b1001000 C
b1010000100001100011 &
b1010000100001100011 m
b1001000 )
b1001000 I
b111100 A
b111100 _
b111100 j
b111000 B
b111000 G
b111000 ]
1!
#56000
0!
#58000
b0 ?
b0 L
b0 R
b11110000 '
b11110000 e
b11110000 l
0:
b11 =
b11 Q
b11 U
1;
10
0(
b111100 [
b11110000 i
b11011 V
0@
b11110000 <
b11110000 M
b11110000 W
b11110000 *
b11110000 F
b10011 3
b10011 S
b11110000 %
b11110000 J
b11110000 .
b11110000 E
b11110000 b
b1000 /
b1000 a
b1010 2
b1010 `
b0 +
b0 D
b0 H
b0 g
b0 o
b10011 n
b1001100 $
b1001100 C
b1000000010100010011 &
b1000000010100010011 m
b1001000 )
b1001000 I
b1001100 A
b1001100 _
b1001100 j
b1001000 B
b1001000 G
b1001000 ]
1!
#60000
0!
#62000
b11101100 '
b11101100 e
b11101100 l
b111011 [
b11101100 i
b11101100 <
b11101100 M
b11101100 W
b1000 P
b11101100 *
b11101100 F
b11111111111111111111111111111100 >
b11111111111111111111111111111100 K
b11111111111111111111111111111100 h
b1111111 8
b1111111 O
b1010 /
b1010 a
b11100 -
b11100 c
b11111111111111111111111111111100 +
b11111111111111111111111111111100 D
b11111111111111111111111111111100 H
b11111111111111111111111111111100 g
b11111111111111111111111111111100 o
b1010000 $
b1010000 C
b11111111110001010000010100010011 &
b11111111110001010000010100010011 m
b1001000 )
b1001000 I
b1010000 A
b1010000 _
b1010000 j
b1001100 B
b1001100 G
b1001100 ]
1!
#64000
b11101000 '
b11101000 e
b11101000 l
b111010 [
b11101000 i
b11101000 <
b11101000 M
b11101000 W
b11101000 *
b11101000 F
b11101100 %
b11101100 J
b11101100 .
b11101100 E
b11101100 b
0!
#66000
b10 1
b10 \
b10 '
b10 e
b10 l
b111011 [
b10 i
16
15
b0 =
b0 Q
b0 U
b11101100 <
b11101100 M
b11101100 W
b1100011 V
b10 X
b0 ?
b0 L
b0 R
b11101100 *
b11101100 F
b0 >
b0 K
b0 h
b11 3
b11 S
b0 8
b0 O
b10 P
b10 9
b10 N
b0 -
b0 c
b0 +
b0 D
b0 H
b0 g
b0 o
b11 n
b1010100 $
b1010100 C
b1010010010100000011 &
b1010010010100000011 m
b1010000 )
b1010000 I
b1010100 A
b1010100 _
b1010100 j
b1010000 B
b1010000 G
b1010000 ]
1!
#68000
b0 '
b0 e
b0 l
b0 i
b0 1
b0 \
b0 [
b10 <
b10 M
b10 W
b10 *
b10 F
b10 %
b10 J
b10 .
b10 E
b10 b
0!
#70000
b1 '
b1 e
b1 l
b1 i
06
05
b11 =
b11 Q
b11 U
b11011 V
b0 X
b1 <
b1 M
b1 W
b1 *
b1 F
b1 >
b1 K
b1 h
b10011 3
b10011 S
b0 P
b0 9
b0 N
b0 %
b0 J
b0 .
b0 E
b0 b
b0 /
b0 a
b11011000 ,
b11011000 Z
b11011000 d
b11011000 f
b1 -
b1 c
b1011 2
b1011 `
b1 +
b1 D
b1 H
b1 g
b1 o
b10011 n
b1011000 $
b1011000 C
b100000000010110010011 &
b100000000010110010011 m
b1010101 )
b1010101 I
b1011000 A
b1011000 _
b1011000 j
b1010100 B
b1010100 G
b1010100 ]
1!
#72000
0!
#74000
b1 ?
b1 L
b1 R
b1 '
b1 e
b1 l
1:
b1 =
b1 Q
b1 U
0;
00
b0 [
b1 i
b10001000 V
b1 <
b1 M
b1 W
b1110 *
b1110 F
b1 >
b1 K
b1 h
b1100011 3
b1100011 S
b10 %
b10 J
b10 .
b10 E
b10 b
b1010 /
b1010 a
b1 ,
b1 Z
b1 d
b1 f
b1011 -
b1011 c
b1100 2
b1100 `
b1100 +
b1100 D
b1100 H
b1100 g
b1100 o
b1100011 n
b1011100 $
b1011100 C
b101101010000011001100011 &
b101101010000011001100011 m
b1100100 )
b1100100 I
b1011100 A
b1011100 _
b1011100 j
b1011000 B
b1011000 G
b1011000 ]
1!
#76000
0!
#78000
b0 ?
b0 L
b0 R
b0 '
b0 e
b0 l
0:
b11 =
b11 Q
b11 U
1;
10
0(
b0 i
b11011 V
0@
b0 <
b0 M
b0 W
b0 *
b0 F
b0 >
b0 K
b0 h
b10011 3
b10011 S
b0 %
b0 J
b0 .
b0 E
b0 b
b0 /
b0 a
b0 ,
b0 Z
b0 d
b0 f
b0 -
b0 c
b1010 2
b1010 `
b0 +
b0 D
b0 H
b0 g
b0 o
b10011 n
b1100000 $
b1100000 C
b10100010011 &
b10100010011 m
b1011100 )
b1011100 I
b1100000 A
b1100000 _
b1100000 j
b1011100 B
b1011100 G
b1011100 ]
1!
#80000
0!
#82000
b1100100 '
b1100100 e
b1100100 l
1k
b111100 [
b11110000 i
b10 7
b10 T
b0 =
b0 Q
b0 U
0;
b11110000 <
b11110000 M
b11110000 W
b1000000001 V
b1000 *
b1000 F
b11110000 >
b11110000 K
b11110000 h
b1101111 3
b1101111 S
b11110000 ,
b11110000 Z
b11110000 d
b11110000 f
b1000 -
b1000 c
b0 2
b0 `
b1000 +
b1000 D
b1000 H
b1000 g
b1000 o
b1101111 n
b1101000 $
b1101000 C
b100000000000000001101111 &
b100000000000000001101111 m
b1101000 )
b1101000 I
b1100100 A
b1100100 _
b1100100 j
b1100000 B
b1100000 G
b1100000 ]
1!
#84000
b0 %
b0 J
b0 .
b0 E
b0 b
0!
#86000
0k
b0 [
b0 i
b0 7
b0 T
b11 =
b11 Q
b11 U
1;
b0 <
b0 M
b0 W
b11011 V
b0 *
b0 F
b0 >
b0 K
b0 h
b10011 3
b10011 S
b0 ,
b0 Z
b0 d
b0 f
b0 -
b0 c
b0 +
b0 D
b0 H
b0 g
b0 o
b10011 n
b0 '
b0 e
b0 l
b1101100 $
b1101100 C
b10011 &
b10011 m
b1101000 )
b1101000 I
b1101100 A
b1101100 _
b1101100 j
b1101000 B
b1101000 G
b1101000 ]
1!
#88000
0!
#90000
1(
1@
b0 '
b0 e
b0 l
b1 ?
b1 L
b1 R
b0 [
b0 i
1:
b1 =
b1 Q
b1 U
0;
00
b0 <
b0 M
b0 W
b10001000 V
b10000 *
b10000 F
b0 >
b0 K
b0 h
b1100011 3
b1100011 S
b1010 /
b1010 a
b10000 2
b10000 `
b10000 +
b10000 D
b10000 H
b10000 g
b10000 o
b1100011 n
b1111100 $
b1111100 C
b1010000100001100011 &
b1010000100001100011 m
b1111100 )
b1111100 I
b1110000 A
b1110000 _
b1110000 j
b1101100 B
b1101100 G
b1101100 ]
1!
#92000
0!
#94000
b0 ?
b0 L
b0 R
b11110000 '
b11110000 e
b11110000 l
0:
b11 =
b11 Q
b11 U
1;
10
0(
b111100 [
b11110000 i
b11011 V
0@
b11110000 <
b11110000 M
b11110000 W
b11110000 *
b11110000 F
b10011 3
b10011 S
b11110000 %
b11110000 J
b11110000 .
b11110000 E
b11110000 b
b1000 /
b1000 a
b1010 2
b1010 `
b0 +
b0 D
b0 H
b0 g
b0 o
b10011 n
b10000000 $
b10000000 C
b1000000010100010011 &
b1000000010100010011 m
b1111100 )
b1111100 I
b10000000 A
b10000000 _
b10000000 j
b1111100 B
b1111100 G
b1111100 ]
1!
#96000
0!
#98000
b11101100 '
b11101100 e
b11101100 l
b111011 [
b11101100 i
b11101100 <
b11101100 M
b11101100 W
b1000 P
b11101100 *
b11101100 F
b11111111111111111111111111111100 >
b11111111111111111111111111111100 K
b11111111111111111111111111111100 h
b1111111 8
b1111111 O
b1010 /
b1010 a
b11100 -
b11100 c
b11111111111111111111111111111100 +
b11111111111111111111111111111100 D
b11111111111111111111111111111100 H
b11111111111111111111111111111100 g
b11111111111111111111111111111100 o
b10000100 $
b10000100 C
b11111111110001010000010100010011 &
b11111111110001010000010100010011 m
b1111100 )
b1111100 I
b10000100 A
b10000100 _
b10000100 j
b10000000 B
b10000000 G
b10000000 ]
1!
#100000
b11101000 '
b11101000 e
b11101000 l
b111010 [
b11101000 i
b11101000 <
b11101000 M
b11101000 W
b11101000 *
b11101000 F
b11101100 %
b11101100 J
b11101100 .
b11101100 E
b11101100 b
0!
#102000
b10 1
b10 \
b10 '
b10 e
b10 l
b111011 [
b10 i
16
15
b0 =
b0 Q
b0 U
b11101100 <
b11101100 M
b11101100 W
b1100011 V
b10 X
b0 ?
b0 L
b0 R
b11101100 *
b11101100 F
b0 >
b0 K
b0 h
b11 3
b11 S
b0 8
b0 O
b10 P
b10 9
b10 N
b0 -
b0 c
b0 +
b0 D
b0 H
b0 g
b0 o
b11 n
b10001000 $
b10001000 C
b1010010010100000011 &
b1010010010100000011 m
b10000100 )
b10000100 I
b10001000 A
b10001000 _
b10001000 j
b10000100 B
b10000100 G
b10000100 ]
1!
#104000
b0 '
b0 e
b0 l
b0 i
b0 1
b0 \
b0 [
b10 <
b10 M
b10 W
b10 *
b10 F
b10 %
b10 J
b10 .
b10 E
b10 b
0!
#106000
b1 '
b1 e
b1 l
b1 i
06
05
b11 =
b11 Q
b11 U
b11011 V
b0 X
b1 <
b1 M
b1 W
b1 *
b1 F
b1 >
b1 K
b1 h
b10011 3
b10011 S
b0 P
b0 9
b0 N
b0 %
b0 J
b0 .
b0 E
b0 b
b0 /
b0 a
b11011000 ,
b11011000 Z
b11011000 d
b11011000 f
b1 -
b1 c
b1011 2
b1011 `
b1 +
b1 D
b1 H
b1 g
b1 o
b10011 n
b10001100 $
b10001100 C
b100000000010110010011 &
b100000000010110010011 m
b10001001 )
b10001001 I
b10001100 A
b10001100 _
b10001100 j
b10001000 B
b10001000 G
b10001000 ]
1!
#108000
0!
#110000
b1 ?
b1 L
b1 R
b1 '
b1 e
b1 l
b10 =
b10 Q
b10 U
0;
b1 i
b10001 V
b1000 P
b1 <
b1 M
b1 W
b10 *
b10 F
b1 >
b1 K
b1 h
b110011 3
b110011 S
b100000 8
b100000 O
b10 %
b10 J
b10 .
b10 E
b10 b
b1010 /
b1010 a
b1 ,
b1 Z
b1 d
b1 f
b1011 -
b1011 c
b1010 2
b1010 `
b0 +
b0 D
b0 H
b0 g
b0 o
b110011 n
b10010000 $
b10010000 C
b1000000101101010000010100110011 &
b1000000101101010000010100110011 m
b10001100 )
b10001100 I
b10010000 A
b10010000 _
b10010000 j
b10001100 B
b10001100 G
b10001100 ]
1!
#112000
b0 '
b0 e
b0 l
b0 i
1@
b0 <
b0 M
b0 W
b1 *
b1 F
b1 %
b1 J
b1 .
b1 E
b1 b
0!
#114000
b10010100 '
b10010100 e
b10010100 l
1k
b10 7
b10 T
b0 =
b0 Q
b0 U
0@
b1000000001 V
b11 X
1Y
b1111 ?
b1111 L
b1111 R
b11111111111111111111111101110000 *
b11111111111111111111111101110000 F
b0 >
b0 K
b0 h
b1101111 3
b1101111 S
b1111011 8
b1111011 O
b1111 P
b111 9
b111 N
b0 %
b0 J
b0 .
b0 E
b0 b
b11111 /
b11111 a
b0 ,
b0 Z
b0 d
b0 f
b10001 -
b10001 c
b1 2
b1 `
b11111111111111111111111101110000 +
b11111111111111111111111101110000 D
b11111111111111111111111101110000 H
b11111111111111111111111101110000 g
b11111111111111111111111101110000 o
b1101111 n
b0 $
b0 C
b11110111000111111111000011101111 &
b11110111000111111111000011101111 m
b0 )
b0 I
b10010100 A
b10010100 _
b10010100 j
b10010000 B
b10010000 G
b10010000 ]
1!
#116000
0!
#118000
0k
b11111111111111111111111111100000 >
b11111111111111111111111111100000 K
b11111111111111111111111111100000 h
b110000 [
b11000000 i
b0 7
b0 T
b11 =
b11 Q
b11 U
1;
b11000000 <
b11000000 M
b11000000 W
b11011 V
b0 X
0Y
b0 ?
b0 L
b0 R
b11000000 *
b11000000 F
b10011 3
b10011 S
b1111111 8
b1111111 O
b1000 P
b0 9
b0 N
b11100000 %
b11100000 J
b11100000 .
b11100000 E
b11100000 b
b10 /
b10 a
b0 -
b0 c
b10 2
b10 `
b11111111111111111111111111100000 +
b11111111111111111111111111100000 D
b11111111111111111111111111100000 H
b11111111111111111111111111100000 g
b11111111111111111111111111100000 o
b10011 n
b11000000 '
b11000000 e
b11000000 l
b100 $
b100 C
b11111110000000010000000100010011 &
b11111110000000010000000100010011 m
b11111111111111111111111111100000 )
b11111111111111111111111111100000 I
b100 A
b100 _
b100 j
b0 B
b0 G
b0 ]
1!
#120000
b10100000 '
b10100000 e
b10100000 l
b101000 [
b10100000 i
b10100000 <
b10100000 M
b10100000 W
b10100000 *
b10100000 F
b11000000 %
b11000000 J
b11000000 .
b11000000 E
b11000000 b
0!
#122000
b11011100 '
b11011100 e
b11011100 l
b110111 [
b11011100 i
b0 =
b0 Q
b0 U
14
00
b11011100 <
b11011100 M
b11011100 W
b110 V
b10 X
b0 ?
b0 L
b0 R
b11011100 *
b11011100 F
b11100 >
b11100 K
b11100 h
b100011 3
b100011 S
b0 8
b0 O
b10 P
b10 9
b10 N
b11110000 ,
b11110000 Z
b11110000 d
b11110000 f
b1000 -
b1000 c
b11100 2
b11100 `
b11100 +
b11100 D
b11100 H
b11100 g
b11100 o
b100011 n
b1000 $
b1000 C
b100000010010111000100011 &
b100000010010111000100011 m
b100000 )
b100000 I
b1000 A
b1000 _
b1000 j
b100 B
b100 G
b100 ]
1!
#124000
0!
#126000
b11011000 '
b11011000 e
b11011000 l
b110110 [
b11011000 i
b11011000 <
b11011000 M
b11011000 W
b11011000 *
b11011000 F
b11000 >
b11000 K
b11000 h
b10010100 ,
b10010100 Z
b10010100 d
b10010100 f
b1 -
b1 c
b11000 2
b11000 `
b11000 +
b11000 D
b11000 H
b11000 g
b11000 o
b1100 $
b1100 C
b100010010110000100011 &
b100010010110000100011 m
b100000 )
b100000 I
b1100 A
b1100 _
b1100 j
b1000 B
b1000 G
b1000 ]
1!
#128000
0!
#130000
b11010000 '
b11010000 e
b11010000 l
b110100 [
b11010000 i
b11 =
b11 Q
b11 U
04
10
b11010000 <
b11010000 M
b11010000 W
b11011 V
b0 X
b11010000 *
b11010000 F
b10000 >
b10000 K
b10000 h
b10011 3
b10011 S
b0 P
b0 9
b0 N
b0 ,
b0 Z
b0 d
b0 f
b10000 -
b10000 c
b1000 2
b1000 `
b10000 +
b10000 D
b10000 H
b10000 g
b10000 o
b10011 n
b10000 $
b10000 C
b1000000010000010000010011 &
b1000000010000010000010011 m
b11100 )
b11100 I
b10000 A
b10000 _
b10000 j
b1100 B
b1100 G
b1100 ]
1!
#132000
0!
#134000
b11001100 '
b11001100 e
b11001100 l
b0 =
b0 Q
b0 U
14
00
b110011 [
b11001100 i
b110 V
b10 X
b0 ?
b0 L
b0 R
b11001100 <
b11001100 M
b11001100 W
b11001100 *
b11001100 F
b11111111111111111111111111111100 >
b11111111111111111111111111111100 K
b11111111111111111111111111111100 h
b100011 3
b100011 S
b1111111 8
b1111111 O
b1010 P
b10 9
b10 N
b11010000 %
b11010000 J
b11010000 .
b11010000 E
b11010000 b
b1000 /
b1000 a
b1 ,
b1 Z
b1 d
b1 f
b1010 -
b1010 c
b11100 2
b11100 `
b11111111111111111111111111111100 +
b11111111111111111111111111111100 D
b11111111111111111111111111111100 H
b11111111111111111111111111111100 g
b11111111111111111111111111111100 o
b100011 n
b10100 $
b10100 C
b11111110101001000010111000100011 &
b11111110101001000010111000100011 m
b1100 )
b1100 I
b10100 A
b10100 _
b10100 j
b10000 B
b10000 G
b10000 ]
1!
#136000
0!
